EESchema Schematic File Version 2
LIBS:2650
LIBS:power
LIBS:device
LIBS:switches
LIBS:relays
LIBS:motors
LIBS:transistors
LIBS:conn
LIBS:linear
LIBS:regul
LIBS:74xx
LIBS:cmos4000
LIBS:adc-dac
LIBS:memory
LIBS:xilinx
LIBS:microcontrollers
LIBS:dsp
LIBS:microchip
LIBS:analog_switches
LIBS:motorola
LIBS:texas
LIBS:intel
LIBS:audio
LIBS:interface
LIBS:digital-audio
LIBS:philips
LIBS:display
LIBS:cypress
LIBS:siliconi
LIBS:opto
LIBS:atmel
LIBS:contrib
LIBS:valves
LIBS:29ee010
LIBS:18up5-cache
EELAYER 25 0
EELAYER END
$Descr A4 11693 8268
encoding utf-8
Sheet 2 3
Title "18up5 2650 Minicomputer"
Date "2018-03-18"
Rev "1"
Comp ""
Comment1 ""
Comment2 ""
Comment3 ""
Comment4 "Copyright 2018 by Post Increment"
$EndDescr
$Comp
L 2650 U1
U 1 1 5889E9B5
P 3700 2700
F 0 "U1" H 3700 3600 60  0000 C CNN
F 1 "2650" H 3700 3100 60  0000 C CNN
F 2 "Housings_DIP:DIP-40_W15.24mm_LongPads" H 3700 2700 60  0001 C CNN
F 3 "" H 3700 2700 60  0001 C CNN
	1    3700 2700
	1    0    0    -1  
$EndComp
$Comp
L CN0035_PIPBUG U2
U 1 1 5889E9B6
P 6350 2950
F 0 "U2" H 6350 3400 70  0000 C CNN
F 1 "PIPBUG" H 6350 3250 70  0000 C CNN
F 2 "Housings_DIP:DIP-24_W15.24mm_LongPads" H 6350 2950 60  0001 C CNN
F 3 "" H 6350 2950 60  0001 C CNN
	1    6350 2950
	1    0    0    -1  
$EndComp
$Comp
L 74LS138 U3
U 1 1 5889E9B8
P 6400 5100
F 0 "U3" H 6500 5600 50  0000 C CNN
F 1 "74LS138" H 6550 4551 50  0000 C CNN
F 2 "Housings_DIP:DIP-16_W7.62mm_LongPads" H 6400 5100 50  0001 C CNN
F 3 "" H 6400 5100 50  0000 C CNN
	1    6400 5100
	1    0    0    -1  
$EndComp
$Comp
L 74LS38 U4
U 4 1 5889E9B9
P 1850 5500
F 0 "U4" H 1850 5550 50  0000 C CNN
F 1 "74LS38" H 1850 5450 50  0000 C CNN
F 2 "Housings_DIP:DIP-14_W7.62mm_LongPads" H 1850 5500 50  0001 C CNN
F 3 "" H 1850 5500 50  0000 C CNN
	4    1850 5500
	1    0    0    -1  
$EndComp
$Comp
L 74LS38 U4
U 1 1 5889E9BA
P 1900 3000
F 0 "U4" H 1900 3050 50  0000 C CNN
F 1 "74LS38" H 1900 2950 50  0000 C CNN
F 2 "Housings_DIP:DIP-14_W7.62mm_LongPads" H 1900 3000 50  0001 C CNN
F 3 "" H 1900 3000 50  0000 C CNN
	1    1900 3000
	-1   0    0    -1  
$EndComp
$Comp
L 74LS38 U4
U 3 1 5889E9BB
P 5250 6150
F 0 "U4" H 5250 6200 50  0000 C CNN
F 1 "74LS38" H 5250 6100 50  0000 C CNN
F 2 "Housings_DIP:DIP-14_W7.62mm_LongPads" H 5250 6150 50  0001 C CNN
F 3 "" H 5250 6150 50  0000 C CNN
	3    5250 6150
	1    0    0    -1  
$EndComp
$Comp
L 74LS38 U4
U 2 1 5889E9BC
P 1950 1500
F 0 "U4" H 1950 1550 50  0000 C CNN
F 1 "74LS38" H 1950 1450 50  0000 C CNN
F 2 "Housings_DIP:DIP-14_W7.62mm_LongPads" H 1950 1500 50  0001 C CNN
F 3 "" H 1950 1500 50  0000 C CNN
	2    1950 1500
	1    0    0    -1  
$EndComp
$Comp
L 2114 U6
U 1 1 5889E9BD
P 8500 2450
F 0 "U6" H 8350 2400 60  0000 C CNN
F 1 "2114" H 8650 2400 60  0000 C CNN
F 2 "Housings_DIP:DIP-18_W7.62mm_Socket_LongPads" H 8350 2350 60  0001 C CNN
F 3 "" H 8350 2350 60  0001 C CNN
	1    8500 2450
	1    0    0    -1  
$EndComp
$Comp
L 2114 U7
U 1 1 5889E9BE
P 10250 2450
F 0 "U7" H 10100 2400 60  0000 C CNN
F 1 "2114" H 10400 2400 60  0000 C CNN
F 2 "Housings_DIP:DIP-18_W7.62mm_Socket_LongPads" H 10100 2350 60  0001 C CNN
F 3 "" H 10100 2350 60  0001 C CNN
	1    10250 2450
	1    0    0    -1  
$EndComp
$Comp
L GND #PWR01
U 1 1 5889E9BF
P 5200 2750
F 0 "#PWR01" H 5200 2500 50  0001 C CNN
F 1 "GND" H 5200 2600 50  0000 C CNN
F 2 "" H 5200 2750 50  0000 C CNN
F 3 "" H 5200 2750 50  0000 C CNN
	1    5200 2750
	1    0    0    -1  
$EndComp
$Comp
L GND #PWR02
U 1 1 5889E9C0
P 7650 2550
F 0 "#PWR02" H 7650 2300 50  0001 C CNN
F 1 "GND" H 7650 2400 50  0000 C CNN
F 2 "" H 7650 2550 50  0000 C CNN
F 3 "" H 7650 2550 50  0000 C CNN
	1    7650 2550
	1    0    0    -1  
$EndComp
$Comp
L GND #PWR03
U 1 1 5889E9C1
P 9550 2550
F 0 "#PWR03" H 9550 2300 50  0001 C CNN
F 1 "GND" H 9550 2400 50  0000 C CNN
F 2 "" H 9550 2550 50  0000 C CNN
F 3 "" H 9550 2550 50  0000 C CNN
	1    9550 2550
	1    0    0    -1  
$EndComp
$Comp
L +5V #PWR04
U 1 1 5889E9C2
P 7650 2350
F 0 "#PWR04" H 7650 2200 50  0001 C CNN
F 1 "+5V" H 7650 2490 50  0000 C CNN
F 2 "" H 7650 2350 50  0000 C CNN
F 3 "" H 7650 2350 50  0000 C CNN
	1    7650 2350
	1    0    0    -1  
$EndComp
$Comp
L +5V #PWR05
U 1 1 5889E9C3
P 9550 2350
F 0 "#PWR05" H 9550 2200 50  0001 C CNN
F 1 "+5V" H 9550 2490 50  0000 C CNN
F 2 "" H 9550 2350 50  0000 C CNN
F 3 "" H 9550 2350 50  0000 C CNN
	1    9550 2350
	1    0    0    -1  
$EndComp
$Comp
L +5V #PWR06
U 1 1 5889E9C4
P 3700 750
F 0 "#PWR06" H 3700 600 50  0001 C CNN
F 1 "+5V" H 3700 890 50  0000 C CNN
F 2 "" H 3700 750 50  0000 C CNN
F 3 "" H 3700 750 50  0000 C CNN
	1    3700 750 
	1    0    0    -1  
$EndComp
$Comp
L GND #PWR07
U 1 1 5889E9C5
P 3700 6050
F 0 "#PWR07" H 3700 5800 50  0001 C CNN
F 1 "GND" H 3700 5900 50  0000 C CNN
F 2 "" H 3700 6050 50  0000 C CNN
F 3 "" H 3700 6050 50  0000 C CNN
	1    3700 6050
	1    0    0    -1  
$EndComp
$Comp
L GND #PWR08
U 1 1 5889E9C7
P 5150 5450
F 0 "#PWR08" H 5150 5200 50  0001 C CNN
F 1 "GND" H 5150 5300 50  0000 C CNN
F 2 "" H 5150 5450 50  0000 C CNN
F 3 "" H 5150 5450 50  0000 C CNN
	1    5150 5450
	1    0    0    -1  
$EndComp
Text Label 4650 1200 0    50   ~ 0
D7
Text Label 4650 1300 0    50   ~ 0
D6
Text Label 4650 1400 0    50   ~ 0
D5
Text Label 4650 1500 0    50   ~ 0
D4
Text Label 4650 1600 0    50   ~ 0
D3
Text Label 4650 1700 0    50   ~ 0
D2
Text Label 4650 1800 0    50   ~ 0
D1
Text Label 4650 1900 0    50   ~ 0
D0
Entry Wire Line
	10800 1200 10900 1100
Entry Wire Line
	10800 1300 10900 1200
Entry Wire Line
	10800 1400 10900 1300
Entry Wire Line
	10800 1500 10900 1400
Entry Wire Line
	10800 1600 10900 1500
Entry Wire Line
	10800 1700 10900 1600
Entry Wire Line
	10800 1800 10900 1700
Entry Wire Line
	10800 1900 10900 1800
Text Label 10700 800  0    50   ~ 0
D[0..7]
Text HLabel 10650 800  0    50   Input ~ 0
D[0..7]
Entry Wire Line
	10900 3600 11000 3700
Entry Wire Line
	10900 3700 11000 3800
Entry Wire Line
	10900 3800 11000 3900
Entry Wire Line
	10900 3900 11000 4000
Entry Wire Line
	10900 4000 11000 4100
Entry Wire Line
	10900 4100 11000 4200
Entry Wire Line
	10900 4200 11000 4300
Entry Wire Line
	10900 4300 11000 4400
Entry Wire Line
	10900 4400 11000 4500
Entry Wire Line
	10900 4500 11000 4600
Text Label 4700 3600 0    50   ~ 0
AD0
Text Label 4700 3700 0    50   ~ 0
AD1
Text Label 4700 3800 0    50   ~ 0
AD2
Text Label 4700 3900 0    50   ~ 0
AD3
Text Label 4700 4000 0    50   ~ 0
AD4
Text Label 4700 4100 0    50   ~ 0
AD5
Text Label 4700 4200 0    50   ~ 0
AD6
Text Label 4700 4300 0    50   ~ 0
AD7
Text Label 4700 4400 0    50   ~ 0
AD8
Text Label 4700 4500 0    50   ~ 0
AD9
Text HLabel 10750 4700 0    50   Input ~ 0
AD[0..9]
Text GLabel 5350 5050 0    39   Input ~ 0
OPREQ
Text GLabel 2700 3650 0    39   Input ~ 0
SENSE
Text GLabel 2300 2450 0    39   Input ~ 0
FLAG
Text GLabel 4750 2100 2    39   Input ~ 0
AD14
Text GLabel 4750 2200 2    39   Input ~ 0
AD13
Text GLabel 4750 2300 2    39   Input ~ 0
M/~IO
Text GLabel 4750 5050 2    39   Input ~ 0
AD12
Text GLabel 4750 4650 2    39   Input ~ 0
AD10
Text GLabel 5100 4650 2    39   Input ~ 0
AD11
Text GLabel 2550 1200 0    39   Input ~ 0
CLOCK
$Comp
L R R1
U 1 1 5A6F7CA2
P 4100 750
F 0 "R1" V 4180 750 50  0000 C CNN
F 1 "10k" V 4100 750 50  0000 C CNN
F 2 "Resistors_THT:R_Axial_DIN0411_L9.9mm_D3.6mm_P12.70mm_Horizontal" V 4030 750 50  0001 C CNN
F 3 "" H 4100 750 50  0001 C CNN
	1    4100 750 
	0    1    1    0   
$EndComp
$Comp
L +5V #PWR09
U 1 1 5A6F7D38
P 4350 750
F 0 "#PWR09" H 4350 600 50  0001 C CNN
F 1 "+5V" H 4350 890 50  0000 C CNN
F 2 "" H 4350 750 50  0001 C CNN
F 3 "" H 4350 750 50  0001 C CNN
	1    4350 750 
	1    0    0    -1  
$EndComp
Text GLabel 6450 6300 0    60   Input ~ 0
W(P)
Text GLabel 7750 4950 2    39   Output ~ 0
~CS2
Text GLabel 7750 5050 2    39   Output ~ 0
~CS3
Text GLabel 7750 5150 2    39   Output ~ 0
~CS4
$Comp
L R R2
U 1 1 5A71358B
P 5900 5900
F 0 "R2" V 5980 5900 50  0000 C CNN
F 1 "1k" V 5900 5900 50  0000 C CNN
F 2 "Resistors_THT:R_Axial_DIN0411_L9.9mm_D3.6mm_P12.70mm_Horizontal" V 5830 5900 50  0001 C CNN
F 3 "" H 5900 5900 50  0001 C CNN
	1    5900 5900
	-1   0    0    1   
$EndComp
$Comp
L +5V #PWR010
U 1 1 5A713A50
P 5900 5750
F 0 "#PWR010" H 5900 5600 50  0001 C CNN
F 1 "+5V" H 5900 5890 50  0000 C CNN
F 2 "" H 5900 5750 50  0001 C CNN
F 3 "" H 5900 5750 50  0001 C CNN
	1    5900 5750
	1    0    0    -1  
$EndComp
$Comp
L Conn_01x01 P24
U 1 1 5A713FD4
P 4900 5750
AR Path="/5A713FD4" Ref="P24"  Part="1" 
AR Path="/5889A917/5A713FD4" Ref="P24"  Part="1" 
F 0 "P24" H 4900 5850 50  0000 C CNN
F 1 "WRP" H 4900 5650 50  0000 C CNN
F 2 "Wire_Pads:SolderWirePad_single_0-8mmDrill" H 4900 5750 50  0001 C CNN
F 3 "" H 4900 5750 50  0000 C CNN
	1    4900 5750
	1    0    0    -1  
$EndComp
$Comp
L Conn_01x01 P23
U 1 1 5A71413A
P 4300 5750
AR Path="/5A71413A" Ref="P23"  Part="1" 
AR Path="/5889A917/5A71413A" Ref="P23"  Part="1" 
F 0 "P23" H 4300 5850 50  0000 C CNN
F 1 "~R/W" H 4300 5650 50  0000 C CNN
F 2 "Wire_Pads:SolderWirePad_single_0-8mmDrill" H 4300 5750 50  0001 C CNN
F 3 "" H 4300 5750 50  0000 C CNN
	1    4300 5750
	-1   0    0    -1  
$EndComp
$Comp
L GND #PWR011
U 1 1 5A7146AD
P 2800 6050
F 0 "#PWR011" H 2800 5800 50  0001 C CNN
F 1 "GND" H 2800 5900 50  0000 C CNN
F 2 "" H 2800 6050 50  0000 C CNN
F 3 "" H 2800 6050 50  0000 C CNN
	1    2800 6050
	1    0    0    -1  
$EndComp
$Comp
L L7805 U14
U 1 1 5A7149DB
P 4150 6950
F 0 "U14" H 4000 7075 50  0000 C CNN
F 1 "L7805" H 4150 7075 50  0000 L CNN
F 2 "TO_SOT_Packages_THT:TO-220-3_Vertical" H 4175 6800 50  0001 L CIN
F 3 "" H 4150 6900 50  0001 C CNN
	1    4150 6950
	1    0    0    -1  
$EndComp
$Comp
L D_ALT D1
U 1 1 5A714A6F
P 2900 6950
F 0 "D1" H 2900 7050 50  0000 C CNN
F 1 "EM401" H 2900 6850 50  0000 C CNN
F 2 "Diodes_THT:D_A-405_P12.70mm_Horizontal" H 2900 6950 50  0001 C CNN
F 3 "" H 2900 6950 50  0001 C CNN
	1    2900 6950
	-1   0    0    -1  
$EndComp
$Comp
L D_ALT D2
U 1 1 5A714B39
P 3100 7250
F 0 "D2" H 3100 7350 50  0000 C CNN
F 1 "EM401" H 3100 7150 50  0000 C CNN
F 2 "Diodes_THT:D_A-405_P12.70mm_Horizontal" H 3100 7250 50  0001 C CNN
F 3 "" H 3100 7250 50  0001 C CNN
	1    3100 7250
	0    -1   1    0   
$EndComp
$Comp
L CP C1
U 1 1 5A715124
P 3500 7200
F 0 "C1" H 3525 7300 50  0000 L CNN
F 1 "2500uF/16V" H 3525 7100 50  0000 L CNN
F 2 "Capacitors_THT:CP_Radial_D18.0mm_P7.50mm" H 3538 7050 50  0001 C CNN
F 3 "" H 3500 7200 50  0001 C CNN
	1    3500 7200
	1    0    0    -1  
$EndComp
$Comp
L GND #PWR012
U 1 1 5A7157C2
P 4150 7500
F 0 "#PWR012" H 4150 7250 50  0001 C CNN
F 1 "GND" H 4150 7350 50  0000 C CNN
F 2 "" H 4150 7500 50  0001 C CNN
F 3 "" H 4150 7500 50  0001 C CNN
	1    4150 7500
	1    0    0    -1  
$EndComp
$Comp
L C C2
U 1 1 5A715947
P 4600 7150
F 0 "C2" H 4625 7250 50  0000 L CNN
F 1 "0.1uF" H 4625 7050 50  0000 L CNN
F 2 "2650:C_Axial_L3.8mm_D2.6mm_P25.00mm_Horizontal" H 4638 7000 50  0001 C CNN
F 3 "" H 4600 7150 50  0001 C CNN
	1    4600 7150
	1    0    0    -1  
$EndComp
$Comp
L C C3
U 1 1 5A715993
P 4850 7150
F 0 "C3" H 4875 7250 50  0000 L CNN
F 1 "0.1uF" H 4875 7050 50  0000 L CNN
F 2 "Capacitors_THT:C_Axial_L5.1mm_D3.1mm_P7.50mm_Horizontal" H 4888 7000 50  0001 C CNN
F 3 "" H 4850 7150 50  0001 C CNN
	1    4850 7150
	1    0    0    -1  
$EndComp
$Comp
L C C4
U 1 1 5A715A4B
P 5100 7150
F 0 "C4" H 5125 7250 50  0000 L CNN
F 1 "0.1uF" H 5125 7050 50  0000 L CNN
F 2 "Capacitors_THT:C_Axial_L5.1mm_D3.1mm_P7.50mm_Horizontal" H 5138 7000 50  0001 C CNN
F 3 "" H 5100 7150 50  0001 C CNN
	1    5100 7150
	1    0    0    -1  
$EndComp
$Comp
L C C5
U 1 1 5A715AA0
P 5350 7150
F 0 "C5" H 5375 7250 50  0000 L CNN
F 1 "0.1uF" H 5375 7050 50  0000 L CNN
F 2 "Capacitors_THT:C_Axial_L5.1mm_D3.1mm_P7.50mm_Horizontal" H 5388 7000 50  0001 C CNN
F 3 "" H 5350 7150 50  0001 C CNN
	1    5350 7150
	1    0    0    -1  
$EndComp
$Comp
L C C6
U 1 1 5A715AF6
P 5600 7150
F 0 "C6" H 5625 7250 50  0000 L CNN
F 1 "0.1uF" H 5625 7050 50  0000 L CNN
F 2 "Capacitors_THT:C_Axial_L5.1mm_D3.1mm_P7.50mm_Horizontal" H 5638 7000 50  0001 C CNN
F 3 "" H 5600 7150 50  0001 C CNN
	1    5600 7150
	1    0    0    -1  
$EndComp
$Comp
L +5V #PWR013
U 1 1 5A7169DB
P 5900 6950
F 0 "#PWR013" H 5900 6800 50  0001 C CNN
F 1 "+5V" H 5900 7090 50  0000 C CNN
F 2 "" H 5900 6950 50  0001 C CNN
F 3 "" H 5900 6950 50  0001 C CNN
	1    5900 6950
	1    0    0    -1  
$EndComp
$Comp
L Conn_01x01 P4
U 1 1 5A716C68
P 2350 6950
AR Path="/5A716C68" Ref="P4"  Part="1" 
AR Path="/5889A917/5A716C68" Ref="P4"  Part="1" 
F 0 "P4" H 2350 7050 50  0000 C CNN
F 1 "+15V" H 2350 6850 50  0000 C CNN
F 2 "Wire_Pads:SolderWirePad_single_0-8mmDrill" H 2350 6950 50  0001 C CNN
F 3 "" H 2350 6950 50  0000 C CNN
	1    2350 6950
	-1   0    0    -1  
$EndComp
$Comp
L Conn_01x01 P22
U 1 1 5A716DF0
P 2350 7550
AR Path="/5A716DF0" Ref="P22"  Part="1" 
AR Path="/5889A917/5A716DF0" Ref="P22"  Part="1" 
F 0 "P22" H 2350 7650 50  0000 C CNN
F 1 "0V" H 2350 7450 50  0000 C CNN
F 2 "Wire_Pads:SolderWirePad_single_0-8mmDrill" H 2350 7550 50  0001 C CNN
F 3 "" H 2350 7550 50  0000 C CNN
	1    2350 7550
	-1   0    0    -1  
$EndComp
$Comp
L Conn_01x01 P25
U 1 1 5A71837D
P 2350 7250
AR Path="/5A71837D" Ref="P25"  Part="1" 
AR Path="/5889A917/5A71837D" Ref="P25"  Part="1" 
F 0 "P25" H 2350 7350 50  0000 C CNN
F 1 "7.5V" H 2350 7150 50  0000 C CNN
F 2 "Wire_Pads:SolderWirePad_single_0-8mmDrill" H 2350 7250 50  0001 C CNN
F 3 "" H 2350 7250 50  0000 C CNN
	1    2350 7250
	-1   0    0    -1  
$EndComp
$Comp
L GND #PWR014
U 1 1 5A718757
P 2700 7300
F 0 "#PWR014" H 2700 7050 50  0001 C CNN
F 1 "GND" H 2700 7150 50  0000 C CNN
F 2 "" H 2700 7300 50  0001 C CNN
F 3 "" H 2700 7300 50  0001 C CNN
	1    2700 7300
	1    0    0    -1  
$EndComp
$Comp
L R R3
U 1 1 5A71A298
P 1050 3000
F 0 "R3" V 1130 3000 50  0000 C CNN
F 1 "150R" V 1050 3000 50  0000 C CNN
F 2 "Resistors_THT:R_Axial_DIN0411_L9.9mm_D3.6mm_P12.70mm_Horizontal" V 980 3000 50  0001 C CNN
F 3 "" H 1050 3000 50  0001 C CNN
	1    1050 3000
	0    1    1    0   
$EndComp
$Comp
L Jack-DC J11
U 1 1 5A71AD3E
P 3100 6550
F 0 "J11" H 3100 6760 50  0000 C CNN
F 1 "+5V" H 3100 6375 50  0000 C CNN
F 2 "Connectors:Barrel_Jack_CUI_PJ-102AH" H 3150 6510 50  0001 C CNN
F 3 "" H 3150 6510 50  0001 C CNN
	1    3100 6550
	1    0    0    -1  
$EndComp
$Comp
L GND #PWR015
U 1 1 5A71AF65
P 3650 6650
F 0 "#PWR015" H 3650 6400 50  0001 C CNN
F 1 "GND" H 3650 6500 50  0000 C CNN
F 2 "" H 3650 6650 50  0000 C CNN
F 3 "" H 3650 6650 50  0000 C CNN
	1    3650 6650
	1    0    0    -1  
$EndComp
$Comp
L VCC #PWR016
U 1 1 5A71D130
P 5700 6950
F 0 "#PWR016" H 5700 6800 50  0001 C CNN
F 1 "VCC" H 5700 7100 50  0000 C CNN
F 2 "" H 5700 6950 50  0001 C CNN
F 3 "" H 5700 6950 50  0001 C CNN
	1    5700 6950
	1    0    0    -1  
$EndComp
Text GLabel 7750 4650 2    39   Output ~ 0
~CS0
$Comp
L R R17
U 1 1 5A753DC5
P 2350 5150
F 0 "R17" V 2430 5150 50  0000 C CNN
F 1 "2k2" V 2350 5150 50  0000 C CNN
F 2 "Resistors_THT:R_Axial_DIN0411_L9.9mm_D3.6mm_P12.70mm_Horizontal" V 2280 5150 50  0001 C CNN
F 3 "" H 2350 5150 50  0001 C CNN
	1    2350 5150
	-1   0    0    1   
$EndComp
$Comp
L R R14
U 1 1 5A754D95
P 1350 5100
F 0 "R14" V 1430 5100 50  0000 C CNN
F 1 "10k" V 1350 5100 50  0000 C CNN
F 2 "Resistors_THT:R_Axial_DIN0411_L9.9mm_D3.6mm_P12.70mm_Horizontal" V 1280 5100 50  0001 C CNN
F 3 "" H 1350 5100 50  0001 C CNN
	1    1350 5100
	-1   0    0    1   
$EndComp
$Comp
L +5V #PWR017
U 1 1 5A755454
P 950 4800
F 0 "#PWR017" H 950 4650 50  0001 C CNN
F 1 "+5V" H 950 4940 50  0000 C CNN
F 2 "" H 950 4800 50  0001 C CNN
F 3 "" H 950 4800 50  0001 C CNN
	1    950  4800
	1    0    0    -1  
$EndComp
$Comp
L R R18
U 1 1 5A755D5E
P 2750 1600
F 0 "R18" V 2830 1600 50  0000 C CNN
F 1 "10k" V 2750 1600 50  0000 C CNN
F 2 "Resistors_THT:R_Axial_DIN0411_L9.9mm_D3.6mm_P12.70mm_Horizontal" V 2680 1600 50  0001 C CNN
F 3 "" H 2750 1600 50  0001 C CNN
	1    2750 1600
	-1   0    0    1   
$EndComp
$Comp
L R R13
U 1 1 5A7563B5
P 1250 1200
F 0 "R13" V 1330 1200 50  0000 C CNN
F 1 "10k" V 1250 1200 50  0000 C CNN
F 2 "Resistors_THT:R_Axial_DIN0411_L9.9mm_D3.6mm_P12.70mm_Horizontal" V 1180 1200 50  0001 C CNN
F 3 "" H 1250 1200 50  0001 C CNN
	1    1250 1200
	-1   0    0    1   
$EndComp
$Comp
L R R10
U 1 1 5A756573
P 1000 1600
F 0 "R10" V 1080 1600 50  0000 C CNN
F 1 "10R" V 1000 1600 50  0000 C CNN
F 2 "Resistors_THT:R_Axial_DIN0411_L9.9mm_D3.6mm_P12.70mm_Horizontal" V 930 1600 50  0001 C CNN
F 3 "" H 1000 1600 50  0001 C CNN
	1    1000 1600
	0    -1   -1   0   
$EndComp
$Comp
L CP C9
U 1 1 5A756D29
P 1250 1850
F 0 "C9" H 1275 1950 50  0000 L CNN
F 1 "1U5" H 1275 1750 50  0000 L CNN
F 2 "Capacitors_THT:CP_Radial_Tantal_D5.0mm_P2.50mm" H 1288 1700 50  0001 C CNN
F 3 "" H 1250 1850 50  0001 C CNN
	1    1250 1850
	1    0    0    -1  
$EndComp
$Comp
L +5V #PWR018
U 1 1 5A757CA0
P 2750 1400
F 0 "#PWR018" H 2750 1250 50  0001 C CNN
F 1 "+5V" H 2750 1540 50  0000 C CNN
F 2 "" H 2750 1400 50  0001 C CNN
F 3 "" H 2750 1400 50  0001 C CNN
	1    2750 1400
	1    0    0    -1  
$EndComp
$Comp
L +5V #PWR019
U 1 1 5A757F1A
P 1250 1000
F 0 "#PWR019" H 1250 850 50  0001 C CNN
F 1 "+5V" H 1250 1140 50  0000 C CNN
F 2 "" H 1250 1000 50  0001 C CNN
F 3 "" H 1250 1000 50  0001 C CNN
	1    1250 1000
	1    0    0    -1  
$EndComp
$Comp
L GND #PWR020
U 1 1 5A7582FF
P 1250 2250
F 0 "#PWR020" H 1250 2000 50  0001 C CNN
F 1 "GND" H 1250 2100 50  0000 C CNN
F 2 "" H 1250 2250 50  0001 C CNN
F 3 "" H 1250 2250 50  0001 C CNN
	1    1250 2250
	1    0    0    -1  
$EndComp
$Comp
L Link_02x01 J14
U 1 1 5A7596E9
P 750 2700
F 0 "J14" H 800 2800 50  0000 C CNN
F 1 "20MA_OUT" H 800 2600 50  0000 C CNN
F 2 "Pin_Headers:Pin_Header_Straight_1x02_Pitch2.54mm" H 750 2700 50  0001 C CNN
F 3 "" H 750 2700 50  0001 C CNN
	1    750  2700
	0    1    1    0   
$EndComp
$Comp
L +5V #PWR021
U 1 1 5A759D68
P 900 2450
F 0 "#PWR021" H 900 2300 50  0001 C CNN
F 1 "+5V" H 900 2590 50  0000 C CNN
F 2 "" H 900 2450 50  0001 C CNN
F 3 "" H 900 2450 50  0001 C CNN
	1    900  2450
	1    0    0    -1  
$EndComp
$Comp
L BC548 Q1
U 1 1 5A75A463
P 2300 4100
F 0 "Q1" H 2500 4175 50  0000 L CNN
F 1 "BC548" H 2500 4100 50  0000 L CNN
F 2 "TO_SOT_Packages_THT:TO-92_Molded_Wide" H 2500 4025 50  0001 L CIN
F 3 "" H 2300 4100 50  0001 L CNN
	1    2300 4100
	1    0    0    -1  
$EndComp
$Comp
L R R11
U 1 1 5A75A54A
P 1150 4100
F 0 "R11" V 1230 4100 50  0000 C CNN
F 1 "3K3" V 1150 4100 50  0000 C CNN
F 2 "Resistors_THT:R_Axial_DIN0411_L9.9mm_D3.6mm_P12.70mm_Horizontal" V 1080 4100 50  0001 C CNN
F 3 "" H 1150 4100 50  0001 C CNN
	1    1150 4100
	0    1    1    0   
$EndComp
$Comp
L R R9
U 1 1 5A75A5F1
P 950 3650
F 0 "R9" V 1030 3650 50  0000 C CNN
F 1 "1K" V 950 3650 50  0000 C CNN
F 2 "Resistors_THT:R_Axial_DIN0411_L9.9mm_D3.6mm_P12.70mm_Horizontal" V 880 3650 50  0001 C CNN
F 3 "" H 950 3650 50  0001 C CNN
	1    950  3650
	-1   0    0    1   
$EndComp
$Comp
L R R15
U 1 1 5A75A6BD
P 1450 4350
F 0 "R15" V 1530 4350 50  0000 C CNN
F 1 "1K" V 1450 4350 50  0000 C CNN
F 2 "Resistors_THT:R_Axial_DIN0411_L9.9mm_D3.6mm_P12.70mm_Horizontal" V 1380 4350 50  0001 C CNN
F 3 "" H 1450 4350 50  0001 C CNN
	1    1450 4350
	-1   0    0    1   
$EndComp
$Comp
L R R16
U 1 1 5A75A773
P 2300 3650
F 0 "R16" V 2380 3650 50  0000 C CNN
F 1 "1K" V 2300 3650 50  0000 C CNN
F 2 "Resistors_THT:R_Axial_DIN0411_L9.9mm_D3.6mm_P12.70mm_Horizontal" V 2230 3650 50  0001 C CNN
F 3 "" H 2300 3650 50  0001 C CNN
	1    2300 3650
	-1   0    0    1   
$EndComp
$Comp
L D D3
U 1 1 5A75A7EB
P 2000 3650
F 0 "D3" H 2000 3750 50  0000 C CNN
F 1 "1N914" H 2000 3550 50  0000 C CNN
F 2 "Diodes_THT:D_A-405_P7.62mm_Horizontal" H 2000 3650 50  0001 C CNN
F 3 "" H 2000 3650 50  0001 C CNN
	1    2000 3650
	0    1    1    0   
$EndComp
$Comp
L D D4
U 1 1 5A75A889
P 2000 4350
F 0 "D4" H 2000 4450 50  0000 C CNN
F 1 "1N914" H 2000 4500 50  0000 C CNN
F 2 "Diodes_THT:D_A-405_P7.62mm_Horizontal" H 2000 4350 50  0001 C CNN
F 3 "" H 2000 4350 50  0001 C CNN
	1    2000 4350
	0    1    1    0   
$EndComp
$Comp
L CP C10
U 1 1 5A75AB25
P 1750 4350
F 0 "C10" H 1775 4450 50  0000 L CNN
F 1 "1U5" H 1775 4250 50  0000 L CNN
F 2 "Capacitors_THT:CP_Radial_Tantal_D5.0mm_P2.50mm" H 1788 4200 50  0001 C CNN
F 3 "" H 1750 4350 50  0001 C CNN
	1    1750 4350
	1    0    0    -1  
$EndComp
$Comp
L +5V #PWR022
U 1 1 5A75CA05
P 950 3400
F 0 "#PWR022" H 950 3250 50  0001 C CNN
F 1 "+5V" H 950 3540 50  0000 C CNN
F 2 "" H 950 3400 50  0001 C CNN
F 3 "" H 950 3400 50  0001 C CNN
	1    950  3400
	1    0    0    -1  
$EndComp
$Comp
L GND #PWR023
U 1 1 5A75CA91
P 1650 4600
F 0 "#PWR023" H 1650 4350 50  0001 C CNN
F 1 "GND" H 1650 4450 50  0000 C CNN
F 2 "" H 1650 4600 50  0001 C CNN
F 3 "" H 1650 4600 50  0001 C CNN
	1    1650 4600
	1    0    0    -1  
$EndComp
Text GLabel 2450 2650 0    39   Input ~ 0
PULLUP
Text GLabel 1600 1150 2    39   Input ~ 0
PULLUP
$Comp
L Conn_02x01 J15
U 1 1 5A756E3B
P 750 4300
F 0 "J15" H 800 4400 50  0000 C CNN
F 1 "20MA_IN" H 800 4200 50  0000 C CNN
F 2 "Pin_Headers:Pin_Header_Straight_1x02_Pitch2.54mm" H 750 4300 50  0001 C CNN
F 3 "" H 750 4300 50  0001 C CNN
	1    750  4300
	0    1    1    0   
$EndComp
$Comp
L Link_02x01 J13
U 1 1 5A756FF5
P 750 1900
F 0 "J13" H 800 2000 50  0000 C CNN
F 1 "RESET" H 800 1800 50  0000 C CNN
F 2 "Pin_Headers:Pin_Header_Straight_1x02_Pitch2.54mm" H 750 1900 50  0001 C CNN
F 3 "" H 750 1900 50  0001 C CNN
	1    750  1900
	0    1    1    0   
$EndComp
Connection ~ 2000 4600
Wire Wire Line
	2400 4600 2400 4300
Wire Wire Line
	1350 1150 1600 1150
Wire Wire Line
	1350 1400 1350 1150
Wire Wire Line
	2600 2650 2450 2650
Wire Wire Line
	2600 2900 2600 2650
Wire Wire Line
	2500 2900 2600 2900
Connection ~ 950  3450
Connection ~ 1450 4600
Connection ~ 1750 4600
Wire Wire Line
	2000 4600 2000 4500
Connection ~ 1650 4600
Wire Wire Line
	1750 4600 1750 4500
Wire Wire Line
	750  4600 2400 4600
Wire Wire Line
	1450 4500 1450 4600
Connection ~ 2000 3450
Wire Wire Line
	2300 3450 2300 3500
Wire Wire Line
	2000 3450 2000 3500
Wire Wire Line
	950  3450 2300 3450
Wire Wire Line
	950  3400 950  3500
Connection ~ 2400 3850
Wire Wire Line
	2300 3850 2300 3800
Connection ~ 2800 3650
Wire Wire Line
	2300 3850 2800 3850
Wire Wire Line
	2400 3900 2400 3850
Connection ~ 950  4100
Wire Wire Line
	950  4100 950  3800
Wire Wire Line
	750  4100 1000 4100
Connection ~ 1450 4100
Connection ~ 1750 4100
Wire Wire Line
	1450 4200 1450 4100
Wire Wire Line
	1750 4100 1750 4200
Connection ~ 2000 4100
Wire Wire Line
	2000 3800 2000 4200
Wire Wire Line
	1300 4100 2100 4100
Wire Wire Line
	900  2500 900  2450
Wire Wire Line
	750  2500 900  2500
Wire Wire Line
	750  3000 900  3000
Connection ~ 2850 2450
Connection ~ 1250 2200
Wire Wire Line
	750  2200 1250 2200
Wire Wire Line
	750  1500 750  1700
Wire Wire Line
	850  1600 750  1600
Wire Wire Line
	2850 2400 2850 3100
Wire Wire Line
	1250 2000 1250 2250
Wire Wire Line
	1250 1050 1250 1000
Wire Wire Line
	2750 1450 2750 1400
Wire Wire Line
	2550 1850 2550 1500
Connection ~ 1250 1600
Wire Wire Line
	1250 1350 1250 1700
Wire Wire Line
	1150 1600 1350 1600
Connection ~ 2750 1850
Wire Wire Line
	2750 1750 2750 1850
Wire Wire Line
	950  4800 950  4850
Connection ~ 1350 4850
Wire Wire Line
	1350 4850 1350 4950
Wire Wire Line
	2350 4850 2350 5000
Wire Wire Line
	950  4850 2350 4850
Wire Wire Line
	1150 5500 1150 5600
Wire Wire Line
	1350 5500 1150 5500
Wire Wire Line
	1350 5250 1350 5500
Connection ~ 2550 5350
Wire Wire Line
	2350 5350 2350 5300
Wire Wire Line
	2550 5350 2350 5350
Wire Wire Line
	550  5600 750  5600
Wire Wire Line
	1050 5600 1250 5600
Wire Wire Line
	2550 4750 2550 5500
Wire Wire Line
	2550 5500 2450 5500
Connection ~ 7650 4650
Wire Wire Line
	7750 4650 7650 4650
Connection ~ 5700 6950
Wire Wire Line
	3400 6650 3650 6650
Wire Wire Line
	3400 6450 4600 6450
Wire Wire Line
	1200 3000 1300 3000
Wire Wire Line
	2700 7250 2700 7300
Wire Wire Line
	2550 7250 2700 7250
Wire Wire Line
	3100 7550 3100 7400
Wire Wire Line
	2550 7550 3100 7550
Wire Wire Line
	3500 7400 5850 7400
Wire Wire Line
	4500 5750 4550 5750
Connection ~ 4650 5750
Wire Wire Line
	4700 5750 4650 5750
Connection ~ 5600 7400
Connection ~ 5350 7400
Wire Wire Line
	5600 7400 5600 7300
Connection ~ 5100 7400
Wire Wire Line
	5350 7400 5350 7300
Connection ~ 4850 7400
Wire Wire Line
	5100 7400 5100 7300
Connection ~ 4600 7400
Wire Wire Line
	4850 7400 4850 7300
Wire Wire Line
	4600 7400 4600 7300
Connection ~ 5600 6950
Connection ~ 5350 6950
Wire Wire Line
	5600 6950 5600 7000
Connection ~ 5100 6950
Wire Wire Line
	5350 6950 5350 7000
Connection ~ 4850 6950
Wire Wire Line
	5100 6950 5100 7000
Connection ~ 4600 6950
Wire Wire Line
	4850 6950 4850 7000
Wire Wire Line
	4600 6450 4600 7000
Wire Wire Line
	4450 6950 5900 6950
Connection ~ 4150 7400
Wire Wire Line
	4150 7250 4150 7500
Wire Wire Line
	3500 7400 3500 7350
Connection ~ 3500 6950
Wire Wire Line
	3500 6950 3500 7050
Wire Wire Line
	2750 6950 2550 6950
Connection ~ 3100 6950
Wire Wire Line
	3050 6950 3850 6950
Wire Wire Line
	3100 7100 3100 6950
Wire Wire Line
	2800 5900 2800 6050
Wire Wire Line
	3500 6000 3500 5900
Connection ~ 3700 6000
Wire Wire Line
	3500 6000 3700 6000
Wire Wire Line
	3700 5900 3700 6050
Connection ~ 5900 6150
Wire Wire Line
	5900 6050 5900 6150
Wire Wire Line
	7650 2800 7650 4750
Wire Wire Line
	7650 2800 7550 2800
Connection ~ 6600 6150
Wire Wire Line
	6600 6150 6600 6300
Wire Wire Line
	6600 6300 6450 6300
Wire Wire Line
	3950 750  3900 750 
Wire Wire Line
	4250 750  4350 750 
Wire Wire Line
	2550 1200 2850 1200
Connection ~ 4650 4750
Wire Wire Line
	4650 4650 4650 4750
Wire Wire Line
	4750 4650 4650 4650
Connection ~ 5050 4850
Wire Wire Line
	5050 4650 5050 4850
Wire Wire Line
	5100 4650 5050 4650
Connection ~ 4650 4950
Wire Wire Line
	4650 5050 4650 4950
Wire Wire Line
	4750 5050 4650 5050
Wire Wire Line
	4550 2300 4750 2300
Wire Wire Line
	4550 2200 4750 2200
Wire Wire Line
	4550 2100 4750 2100
Wire Wire Line
	2300 2450 2850 2450
Wire Wire Line
	2800 3850 2800 3650
Connection ~ 5450 5150
Wire Wire Line
	5450 5050 5450 5150
Wire Wire Line
	5350 5050 5450 5050
Wire Wire Line
	2700 3650 2850 3650
Connection ~ 7650 2350
Wire Wire Line
	7550 2350 7800 2350
Connection ~ 7650 2550
Wire Wire Line
	7550 2550 7800 2550
Wire Wire Line
	11050 2550 10950 2550
Connection ~ 5150 5450
Wire Bus Line
	11000 4700 10750 4700
Wire Bus Line
	11000 3700 11000 4700
Wire Bus Line
	10900 800  10650 800 
Wire Bus Line
	10900 800  10900 1800
Wire Wire Line
	5150 5450 5400 5450
Wire Wire Line
	5150 5350 5400 5350
Wire Wire Line
	2550 4750 2850 4750
Wire Wire Line
	2550 1850 2850 1850
Wire Wire Line
	2850 3100 2500 3100
Connection ~ 9200 4850
Wire Wire Line
	11050 4850 11050 2550
Wire Wire Line
	9200 4850 9200 2550
Connection ~ 9350 6150
Wire Wire Line
	11150 2350 10950 2350
Wire Wire Line
	11150 6150 11150 2350
Wire Wire Line
	9350 6150 9350 2350
Wire Wire Line
	9350 2350 9200 2350
Wire Wire Line
	5150 5350 5150 5450
Wire Wire Line
	5850 6150 11150 6150
Wire Wire Line
	4650 5400 4550 5400
Wire Wire Line
	4650 5400 4650 6050
Connection ~ 5200 2650
Connection ~ 5200 2550
Wire Wire Line
	5200 2450 5200 2750
Connection ~ 10700 4500
Wire Wire Line
	10700 4500 10700 2950
Connection ~ 10600 4400
Wire Wire Line
	10600 4400 10600 2950
Connection ~ 10500 4300
Wire Wire Line
	10500 4300 10500 2950
Connection ~ 10400 4200
Wire Wire Line
	10400 4200 10400 2950
Connection ~ 10300 4100
Wire Wire Line
	10300 4100 10300 2950
Connection ~ 10200 4000
Wire Wire Line
	10200 4000 10200 2950
Connection ~ 10100 3900
Wire Wire Line
	10100 3900 10100 2950
Connection ~ 10000 3800
Wire Wire Line
	10000 3800 10000 2950
Connection ~ 9900 3700
Wire Wire Line
	9900 3700 9900 2950
Connection ~ 9800 3600
Wire Wire Line
	9800 3600 9800 2950
Connection ~ 8950 4500
Wire Wire Line
	8950 4500 8950 2950
Connection ~ 8850 4400
Wire Wire Line
	8850 4400 8850 2950
Connection ~ 8750 4300
Wire Wire Line
	8750 4300 8750 2950
Connection ~ 8650 4200
Wire Wire Line
	8650 4200 8650 2950
Connection ~ 8550 4100
Wire Wire Line
	8550 4100 8550 2950
Connection ~ 8450 4000
Wire Wire Line
	8450 4000 8450 2950
Connection ~ 8350 3900
Wire Wire Line
	8350 3900 8350 2950
Connection ~ 8250 3800
Wire Wire Line
	8250 3800 8250 2950
Connection ~ 8150 3700
Wire Wire Line
	8150 3700 8150 2950
Connection ~ 8050 3600
Wire Wire Line
	8050 3600 8050 2950
Wire Wire Line
	8650 1600 8650 2050
Wire Wire Line
	8550 1700 8550 2050
Wire Wire Line
	8450 1800 8450 2050
Connection ~ 10400 1500
Wire Wire Line
	10400 1500 10400 2050
Connection ~ 10300 1400
Wire Wire Line
	10300 1400 10300 2050
Connection ~ 10200 1300
Wire Wire Line
	10200 1300 10200 2050
Connection ~ 10100 1200
Wire Wire Line
	10100 1200 10100 2050
Connection ~ 8650 1600
Connection ~ 8550 1700
Connection ~ 8450 1800
Connection ~ 8350 1900
Wire Wire Line
	8350 1900 8350 2050
Wire Wire Line
	4550 5500 4550 6250
Wire Wire Line
	5800 5150 5800 5250
Wire Wire Line
	4550 5150 5800 5150
Wire Wire Line
	4550 4950 5800 4950
Wire Wire Line
	4550 4850 5800 4850
Wire Wire Line
	4550 4750 5800 4750
Wire Wire Line
	6800 4500 6800 3250
Wire Wire Line
	4550 4500 10900 4500
Wire Wire Line
	6700 4400 6700 3250
Wire Wire Line
	4550 4400 10900 4400
Wire Wire Line
	6600 4300 6600 3250
Wire Wire Line
	4550 4300 10900 4300
Wire Wire Line
	6500 4200 6500 3250
Wire Wire Line
	4550 4200 10900 4200
Wire Wire Line
	6400 4100 6400 3250
Wire Wire Line
	4550 4100 10900 4100
Wire Wire Line
	6300 4000 6300 3250
Wire Wire Line
	4550 4000 10900 4000
Wire Wire Line
	5900 3600 5900 3250
Wire Wire Line
	6000 3700 6000 3250
Wire Wire Line
	6200 3900 6200 3250
Wire Wire Line
	4550 3900 10900 3900
Wire Wire Line
	6100 3800 6100 3250
Wire Wire Line
	4550 3800 10900 3800
Wire Wire Line
	4550 3700 10900 3700
Connection ~ 6800 4500
Connection ~ 6700 4400
Connection ~ 6600 4300
Connection ~ 6500 4200
Connection ~ 6400 4100
Connection ~ 6300 4000
Connection ~ 6200 3900
Connection ~ 6100 3800
Connection ~ 6000 3700
Connection ~ 5900 3600
Wire Wire Line
	4550 3600 10900 3600
Wire Wire Line
	6100 1800 6100 1900
Wire Wire Line
	6200 1700 6200 1900
Wire Wire Line
	6300 1600 6300 1900
Wire Wire Line
	6400 1500 6400 1900
Wire Wire Line
	6500 1400 6500 1900
Wire Wire Line
	6600 1300 6600 1900
Wire Wire Line
	6700 1200 6700 1900
Wire Wire Line
	4550 1200 10800 1200
Wire Wire Line
	4550 1300 10800 1300
Wire Wire Line
	4550 1400 10800 1400
Wire Wire Line
	4550 1500 10800 1500
Wire Wire Line
	4550 1600 10800 1600
Wire Wire Line
	4550 1700 10800 1700
Wire Wire Line
	4550 1800 10800 1800
Connection ~ 6700 1200
Connection ~ 6600 1300
Connection ~ 6500 1400
Connection ~ 6400 1500
Connection ~ 6300 1600
Connection ~ 6200 1700
Connection ~ 6100 1800
Connection ~ 6000 1900
Wire Wire Line
	4550 1900 10800 1900
Connection ~ 4550 5750
Wire Wire Line
	4550 6250 4650 6250
Connection ~ 1150 5600
Connection ~ 1150 4850
Wire Wire Line
	1150 4950 1150 4850
Connection ~ 1150 5400
Wire Wire Line
	1150 5250 1150 5400
$Comp
L R R12
U 1 1 5A754AE8
P 1150 5100
F 0 "R12" V 1230 5100 50  0000 C CNN
F 1 "10k" V 1150 5100 50  0000 C CNN
F 2 "Resistors_THT:R_Axial_DIN0411_L9.9mm_D3.6mm_P12.70mm_Horizontal" V 1080 5100 50  0001 C CNN
F 3 "" H 1150 5100 50  0001 C CNN
	1    1150 5100
	-1   0    0    1   
$EndComp
Wire Wire Line
	550  5400 550  5700
$Comp
L GND #PWR024
U 1 1 5A75433B
P 550 5700
F 0 "#PWR024" H 550 5450 50  0001 C CNN
F 1 "GND" H 550 5550 50  0000 C CNN
F 2 "" H 550 5700 50  0001 C CNN
F 3 "" H 550 5700 50  0001 C CNN
	1    550  5700
	1    0    0    -1  
$EndComp
Wire Wire Line
	3300 5900 3150 5900
Wire Wire Line
	2850 5900 2800 5900
$Comp
L R JP2
U 1 1 5A780590
P 900 5400
F 0 "JP2" V 980 5400 50  0000 C CNN
F 1 "0R" V 900 5400 50  0000 C CNN
F 2 "Resistors_THT:R_Axial_DIN0204_L3.6mm_D1.6mm_P7.62mm_Horizontal" V 830 5400 50  0001 C CNN
F 3 "" H 900 5400 50  0001 C CNN
	1    900  5400
	0    1    1    0   
$EndComp
$Comp
L R JP3
U 1 1 5A7807AA
P 900 5600
F 0 "JP3" V 980 5600 50  0000 C CNN
F 1 "0R" V 900 5600 50  0000 C CNN
F 2 "Resistors_THT:R_Axial_DIN0204_L3.6mm_D1.6mm_P7.62mm_Horizontal" V 830 5600 50  0001 C CNN
F 3 "" H 900 5600 50  0001 C CNN
	1    900  5600
	0    1    1    0   
$EndComp
Wire Wire Line
	1050 5400 1250 5400
$Comp
L R J4
U 1 1 5A781C56
P 7350 4750
F 0 "J4" V 7430 4750 50  0001 C CNN
F 1 "0R" V 7350 4750 50  0000 C CNN
F 2 "2650:Link_7.62" V 7280 4750 50  0001 C CNN
F 3 "" H 7350 4750 50  0001 C CNN
	1    7350 4750
	0    1    1    0   
$EndComp
$Comp
L R J5
U 1 1 5A782211
P 7350 4850
F 0 "J5" V 7430 4850 50  0001 C CNN
F 1 "0R" V 7350 4850 50  0000 C CNN
F 2 "2650:Link_7.62" V 7280 4850 50  0001 C CNN
F 3 "" H 7350 4850 50  0001 C CNN
	1    7350 4850
	0    1    1    0   
$EndComp
$Comp
L R J6
U 1 1 5A782342
P 7350 4950
F 0 "J6" V 7430 4950 50  0001 C CNN
F 1 "0R" V 7350 4950 50  0000 C CNN
F 2 "2650:Link_7.62" V 7280 4950 50  0001 C CNN
F 3 "" H 7350 4950 50  0001 C CNN
	1    7350 4950
	0    1    1    0   
$EndComp
$Comp
L R J7
U 1 1 5A7824D5
P 7350 5050
F 0 "J7" V 7430 5050 50  0001 C CNN
F 1 "0R" V 7350 5050 50  0000 C CNN
F 2 "2650:Link_7.62" V 7280 5050 50  0001 C TNN
F 3 "" H 7350 5050 50  0001 C CNN
	1    7350 5050
	0    1    1    0   
$EndComp
$Comp
L R J8
U 1 1 5A782606
P 7350 5150
F 0 "J8" V 7430 5150 50  0001 C CNN
F 1 "0R" V 7350 5150 50  0000 C CNN
F 2 "2650:Link_7.62" V 7280 5150 50  0001 C CNN
F 3 "" H 7350 5150 50  0001 C CNN
	1    7350 5150
	0    1    1    0   
$EndComp
$Comp
L R J10
U 1 1 5A782737
P 7350 5250
F 0 "J10" V 7430 5250 50  0001 C CNN
F 1 "0R" V 7350 5250 50  0000 C CNN
F 2 "2650:Link_7.62" V 7280 5250 50  0001 C CNN
F 3 "" H 7350 5250 50  0001 C CNN
	1    7350 5250
	0    1    1    0   
$EndComp
$Comp
L R J12
U 1 1 5A7828CA
P 7350 5350
F 0 "J12" V 7430 5350 50  0001 C CNN
F 1 "0R" V 7350 5350 50  0000 C CNN
F 2 "2650:Link_7.62" V 7280 5350 50  0001 C CNN
F 3 "" H 7350 5350 50  0001 C CNN
	1    7350 5350
	0    1    1    0   
$EndComp
$Comp
L R J16
U 1 1 5A782999
P 7350 5450
F 0 "J16" V 7430 5450 50  0001 C CNN
F 1 "0R" V 7350 5450 50  0000 C CNN
F 2 "2650:Link_7.62" V 7280 5450 50  0001 C CNN
F 3 "" H 7350 5450 50  0001 C CNN
	1    7350 5450
	0    1    1    0   
$EndComp
Wire Wire Line
	7000 4750 7200 4750
Wire Wire Line
	7000 4850 7200 4850
Wire Wire Line
	7000 4950 7200 4950
Wire Wire Line
	7000 5050 7200 5050
Wire Wire Line
	7000 5150 7200 5150
Wire Wire Line
	7000 5250 7200 5250
Wire Wire Line
	7000 5350 7200 5350
Wire Wire Line
	7000 5450 7200 5450
Wire Wire Line
	7650 4750 7500 4750
Wire Wire Line
	7500 4850 11050 4850
Wire Wire Line
	7500 4950 7750 4950
Wire Wire Line
	7500 5050 7750 5050
Wire Wire Line
	7500 5150 7750 5150
Text Label 8050 4850 0    60   ~ 0
~CS1
Connection ~ 550  5600
Wire Wire Line
	550  5400 750  5400
$Comp
L R JP5
U 1 1 5A80F120
P 5550 5350
F 0 "JP5" V 5450 5350 50  0000 C CNN
F 1 "0R" V 5550 5350 50  0000 C CNN
F 2 "2650:Link_7.62" V 5480 5350 50  0001 C CNN
F 3 "" H 5550 5350 50  0001 C CNN
	1    5550 5350
	0    1    1    0   
$EndComp
Wire Wire Line
	5700 5350 5800 5350
$Comp
L R JP6
U 1 1 5A80F649
P 5550 5450
F 0 "JP6" V 5650 5450 50  0000 C CNN
F 1 "0R" V 5550 5450 50  0000 C CNN
F 2 "2650:Link_7.62" V 5480 5450 50  0001 C CNN
F 3 "" H 5550 5450 50  0001 C CNN
	1    5550 5450
	0    1    1    0   
$EndComp
Wire Wire Line
	5700 5450 5800 5450
$Comp
L R JP1
U 1 1 5A80FC90
P 3000 5900
F 0 "JP1" V 3080 5900 50  0000 C CNN
F 1 "0R" V 3000 5900 50  0000 C CNN
F 2 "2650:Link_7.62" V 2930 5900 50  0001 C CNN
F 3 "" H 3000 5900 50  0001 C CNN
	1    3000 5900
	0    1    1    0   
$EndComp
$Comp
L R JP4
U 1 1 5A81117B
P 4100 6000
F 0 "JP4" V 4180 6000 50  0000 C CNN
F 1 "0R" V 4100 6000 50  0000 C CNN
F 2 "2650:Link_7.62" V 4030 6000 50  0001 C CNN
F 3 "" H 4100 6000 50  0001 C CNN
	1    4100 6000
	0    1    1    0   
$EndComp
Wire Wire Line
	3900 5900 3900 6000
Wire Wire Line
	3900 6000 3950 6000
Wire Wire Line
	4250 6000 4350 6000
Wire Wire Line
	4350 6000 4350 6100
$Comp
L GND #PWR025
U 1 1 5A8118FB
P 4350 6100
F 0 "#PWR025" H 4350 5850 50  0001 C CNN
F 1 "GND" H 4350 5950 50  0000 C CNN
F 2 "" H 4350 6100 50  0000 C CNN
F 3 "" H 4350 6100 50  0000 C CNN
	1    4350 6100
	1    0    0    -1  
$EndComp
$Comp
L C C11
U 1 1 5A8ED4D4
P 5850 7150
F 0 "C11" H 5875 7250 50  0000 L CNN
F 1 "0.1uF" H 5875 7050 50  0000 L CNN
F 2 "Capacitors_THT:C_Axial_L5.1mm_D3.1mm_P10.00mm_Horizontal" H 5888 7000 50  0001 C CNN
F 3 "" H 5850 7150 50  0001 C CNN
	1    5850 7150
	1    0    0    -1  
$EndComp
Wire Wire Line
	5850 7400 5850 7300
Wire Wire Line
	5850 7000 5850 6950
Connection ~ 5850 6950
$Comp
L SW_Push SW1
U 1 1 5A90E4C4
P 750 1300
F 0 "SW1" H 800 1400 50  0000 L CNN
F 1 "Reset" H 750 1240 50  0000 C CNN
F 2 "Buttons_Switches_THT:SW_PUSH_6mm" H 750 1500 50  0001 C CNN
F 3 "" H 750 1500 50  0001 C CNN
	1    750  1300
	0    -1   -1   0   
$EndComp
Connection ~ 750  1600
Wire Wire Line
	750  1100 750  900 
Wire Wire Line
	750  900  1000 900 
Wire Wire Line
	1000 900  1000 1050
$Comp
L GND #PWR026
U 1 1 5A90ECAF
P 1000 1050
F 0 "#PWR026" H 1000 800 50  0001 C CNN
F 1 "GND" H 1000 900 50  0000 C CNN
F 2 "" H 1000 1050 50  0001 C CNN
F 3 "" H 1000 1050 50  0001 C CNN
	1    1000 1050
	1    0    0    -1  
$EndComp
$EndSCHEMATC
