EESchema Schematic File Version 2
LIBS:2650
LIBS:power
LIBS:device
LIBS:switches
LIBS:relays
LIBS:motors
LIBS:transistors
LIBS:conn
LIBS:linear
LIBS:regul
LIBS:74xx
LIBS:cmos4000
LIBS:adc-dac
LIBS:memory
LIBS:xilinx
LIBS:microcontrollers
LIBS:dsp
LIBS:microchip
LIBS:analog_switches
LIBS:motorola
LIBS:texas
LIBS:intel
LIBS:audio
LIBS:interface
LIBS:digital-audio
LIBS:philips
LIBS:display
LIBS:cypress
LIBS:siliconi
LIBS:opto
LIBS:atmel
LIBS:contrib
LIBS:valves
LIBS:29ee010
LIBS:18up5-cache
EELAYER 25 0
EELAYER END
$Descr A4 11693 8268
encoding utf-8
Sheet 3 3
Title "18up5 2650 Minicomputer"
Date "2018-03-18"
Rev "1"
Comp ""
Comment1 ""
Comment2 ""
Comment3 ""
Comment4 ""
$EndDescr
$Comp
L Conn_01x08 P5
U 1 1 588B2B5A
P 7250 3300
F 0 "P5" H 7250 3750 50  0000 C CNN
F 1 "CONN_DATA" V 7350 3300 50  0000 C CNN
F 2 "Pin_Headers:Pin_Header_Straight_1x08_Pitch2.54mm" H 7250 3300 50  0001 C CNN
F 3 "" H 7250 3300 50  0000 C CNN
	1    7250 3300
	1    0    0    -1  
$EndComp
Text HLabel 6950 2200 2    50   Input ~ 0
D[0..7]
Entry Wire Line
	6800 2900 6900 3000
Entry Wire Line
	6800 3000 6900 3100
Entry Wire Line
	6800 3100 6900 3200
Entry Wire Line
	6800 3200 6900 3300
Entry Wire Line
	6800 3300 6900 3400
Entry Wire Line
	6800 3400 6900 3500
Entry Wire Line
	6800 3500 6900 3600
Entry Wire Line
	6800 3600 6900 3700
Text Label 6950 3000 0    50   ~ 0
D0
Text Label 6950 3100 0    50   ~ 0
D1
Text Label 6950 3200 0    50   ~ 0
D2
Text Label 6950 3300 0    50   ~ 0
D3
Text Label 6950 3400 0    50   ~ 0
D4
Text Label 6950 3500 0    50   ~ 0
D5
Text Label 6950 3600 0    50   ~ 0
D6
Text Label 6950 3700 0    50   ~ 0
D7
$Comp
L Conn_01x01 P6
U 1 1 5A6E76FB
P 9850 4375
AR Path="/5A6E76FB" Ref="P6"  Part="1" 
AR Path="/5889CFB3/5A6E76FB" Ref="P6"  Part="1" 
F 0 "P6" V 9850 4475 50  0000 C CNN
F 1 "H" V 9950 4375 50  0000 C CNN
F 2 "Wire_Pads:SolderWirePad_single_0-8mmDrill" H 9850 4375 50  0001 C CNN
F 3 "" H 9850 4375 50  0000 C CNN
	1    9850 4375
	0    1    1    0   
$EndComp
$Comp
L Conn_01x01 P11
U 1 1 5A6E7702
P 10050 4375
AR Path="/5A6E7702" Ref="P11"  Part="1" 
AR Path="/5889CFB3/5A6E7702" Ref="P11"  Part="1" 
F 0 "P11" V 10050 4475 50  0000 C CNN
F 1 "H" V 10150 4375 50  0000 C CNN
F 2 "Wire_Pads:SolderWirePad_single_0-8mmDrill" H 10050 4375 50  0001 C CNN
F 3 "" H 10050 4375 50  0000 C CNN
	1    10050 4375
	0    1    1    0   
$EndComp
$Comp
L Conn_01x01 P13
U 1 1 5A6E773D
P 10250 4375
AR Path="/5A6E773D" Ref="P13"  Part="1" 
AR Path="/5889CFB3/5A6E773D" Ref="P13"  Part="1" 
F 0 "P13" V 10250 4475 50  0000 C CNN
F 1 "OPREQ" V 10350 4375 50  0000 C CNN
F 2 "Wire_Pads:SolderWirePad_single_0-8mmDrill" H 10250 4375 50  0001 C CNN
F 3 "" H 10250 4375 50  0000 C CNN
	1    10250 4375
	0    1    1    0   
$EndComp
Text GLabel 9550 4175 0    60   Input ~ 0
OPREQ
$Comp
L Conn_01x01 P1
U 1 1 5A6E7F74
P 9700 3700
AR Path="/5A6E7F74" Ref="P1"  Part="1" 
AR Path="/5889CFB3/5A6E7F74" Ref="P1"  Part="1" 
F 0 "P1" V 9700 3800 50  0000 C CNN
F 1 "A-SENSE" V 9800 3700 50  0000 C CNN
F 2 "Wire_Pads:SolderWirePad_single_0-8mmDrill" H 9700 3700 50  0001 C CNN
F 3 "" H 9700 3700 50  0000 C CNN
	1    9700 3700
	0    1    1    0   
$EndComp
$Comp
L Conn_01x01 P7
U 1 1 5A6E8312
P 8450 3500
AR Path="/5A6E8312" Ref="P7"  Part="1" 
AR Path="/5889CFB3/5A6E8312" Ref="P7"  Part="1" 
F 0 "P7" V 8450 3600 50  0000 C CNN
F 1 "C-FLAG" V 8550 3500 50  0000 C CNN
F 2 "Wire_Pads:SolderWirePad_single_0-8mmDrill" H 8450 3500 50  0001 C CNN
F 3 "" H 8450 3500 50  0000 C CNN
	1    8450 3500
	0    1    1    0   
$EndComp
Text GLabel 9400 3400 0    60   Input ~ 0
SENSE
$Comp
L Conn_01x01 P12
U 1 1 5A6E8AE2
P 8650 3500
AR Path="/5A6E8AE2" Ref="P12"  Part="1" 
AR Path="/5889CFB3/5A6E8AE2" Ref="P12"  Part="1" 
F 0 "P12" V 8650 3600 50  0000 C CNN
F 1 "C" V 8750 3500 50  0000 C CNN
F 2 "Wire_Pads:SolderWirePad_single_0-8mmDrill" H 8650 3500 50  0001 C CNN
F 3 "" H 8650 3500 50  0000 C CNN
	1    8650 3500
	0    1    1    0   
$EndComp
Text GLabel 8150 4100 0    61   Input ~ 0
M/~IO
Text GLabel 6700 4800 0    61   Input ~ 0
AD14
Text GLabel 8050 4800 0    61   Input ~ 0
AD13
$Comp
L Conn_01x01 P8
U 1 1 5A6E8E0A
P 8450 4350
AR Path="/5A6E8E0A" Ref="P8"  Part="1" 
AR Path="/5889CFB3/5A6E8E0A" Ref="P8"  Part="1" 
F 0 "P8" V 8450 4450 50  0000 C CNN
F 1 "M/~IO" V 8550 4350 50  0000 C CNN
F 2 "Wire_Pads:SolderWirePad_single_0-8mmDrill" H 8450 4350 50  0001 C CNN
F 3 "" H 8450 4350 50  0000 C CNN
	1    8450 4350
	0    1    1    0   
$EndComp
$Comp
L Conn_01x01 P9
U 1 1 5A6E8E48
P 7000 5050
AR Path="/5A6E8E48" Ref="P9"  Part="1" 
AR Path="/5889CFB3/5A6E8E48" Ref="P9"  Part="1" 
F 0 "P9" V 7000 5150 50  0000 C CNN
F 1 "AD14" V 7100 5050 50  0000 C CNN
F 2 "Wire_Pads:SolderWirePad_single_0-8mmDrill" H 7000 5050 50  0001 C CNN
F 3 "" H 7000 5050 50  0000 C CNN
	1    7000 5050
	0    1    1    0   
$EndComp
$Comp
L Conn_01x01 P10
U 1 1 5A6E8E84
P 8350 5150
AR Path="/5A6E8E84" Ref="P10"  Part="1" 
AR Path="/5889CFB3/5A6E8E84" Ref="P10"  Part="1" 
F 0 "P10" V 8350 5250 50  0000 C CNN
F 1 "AD13" V 8450 5150 50  0000 C CNN
F 2 "Wire_Pads:SolderWirePad_single_0-8mmDrill" H 8350 5150 50  0001 C CNN
F 3 "" H 8350 5150 50  0000 C CNN
	1    8350 5150
	0    1    1    0   
$EndComp
Text GLabel 6700 5550 0    61   Input ~ 0
AD12
$Comp
L Conn_01x01 P14
U 1 1 5A6E9AFC
P 7000 5900
AR Path="/5A6E9AFC" Ref="P14"  Part="1" 
AR Path="/5889CFB3/5A6E9AFC" Ref="P14"  Part="1" 
F 0 "P14" V 7000 5750 50  0000 C CNN
F 1 "F-AD12" V 7100 5900 50  0000 C CNN
F 2 "Wire_Pads:SolderWirePad_single_0-8mmDrill" H 7000 5900 50  0001 C CNN
F 3 "" H 7000 5900 50  0000 C CNN
	1    7000 5900
	0    1    1    0   
$EndComp
Text GLabel 8100 5550 0    61   Input ~ 0
AD11
$Comp
L Conn_01x01 P16
U 1 1 5A6E9B42
P 8400 5900
AR Path="/5A6E9B42" Ref="P16"  Part="1" 
AR Path="/5889CFB3/5A6E9B42" Ref="P16"  Part="1" 
F 0 "P16" V 8400 6000 50  0000 C CNN
F 1 "E-AD11" V 8500 5900 50  0000 C CNN
F 2 "Wire_Pads:SolderWirePad_single_0-8mmDrill" H 8400 5900 50  0001 C CNN
F 3 "" H 8400 5900 50  0000 C CNN
	1    8400 5900
	0    1    1    0   
$EndComp
Text GLabel 9600 5550 0    61   Input ~ 0
AD10
$Comp
L Conn_01x01 P18
U 1 1 5A6E9CCC
P 9900 5900
AR Path="/5A6E9CCC" Ref="P18"  Part="1" 
AR Path="/5889CFB3/5A6E9CCC" Ref="P18"  Part="1" 
F 0 "P18" V 9900 6000 50  0000 C CNN
F 1 "D-AD10" V 10000 5900 50  0000 C CNN
F 2 "Wire_Pads:SolderWirePad_single_0-8mmDrill" H 9900 5900 50  0001 C CNN
F 3 "" H 9900 5900 50  0000 C CNN
	1    9900 5900
	0    1    1    0   
$EndComp
$Comp
L Conn_01x01 P15
U 1 1 5A6EA007
P 7250 5900
AR Path="/5A6EA007" Ref="P15"  Part="1" 
AR Path="/5889CFB3/5A6EA007" Ref="P15"  Part="1" 
F 0 "P15" V 7250 6000 50  0000 C CNN
F 1 "F" V 7350 5900 50  0000 C CNN
F 2 "Wire_Pads:SolderWirePad_single_0-8mmDrill" H 7250 5900 50  0001 C CNN
F 3 "" H 7250 5900 50  0000 C CNN
	1    7250 5900
	0    1    1    0   
$EndComp
$Comp
L Conn_01x01 P17
U 1 1 5A6EA567
P 8700 5900
AR Path="/5A6EA567" Ref="P17"  Part="1" 
AR Path="/5889CFB3/5A6EA567" Ref="P17"  Part="1" 
F 0 "P17" V 8700 6000 50  0000 C CNN
F 1 "E" V 8800 5900 50  0000 C CNN
F 2 "Wire_Pads:SolderWirePad_single_0-8mmDrill" H 8700 5900 50  0001 C CNN
F 3 "" H 8700 5900 50  0000 C CNN
	1    8700 5900
	0    1    1    0   
$EndComp
$Comp
L Conn_01x01 P19
U 1 1 5A6EA6CB
P 10200 5900
AR Path="/5A6EA6CB" Ref="P19"  Part="1" 
AR Path="/5889CFB3/5A6EA6CB" Ref="P19"  Part="1" 
F 0 "P19" V 10200 6000 50  0000 C CNN
F 1 "D" V 10300 5900 50  0000 C CNN
F 2 "Wire_Pads:SolderWirePad_single_0-8mmDrill" H 10200 5900 50  0001 C CNN
F 3 "" H 10200 5900 50  0000 C CNN
	1    10200 5900
	0    1    1    0   
$EndComp
$Comp
L Conn_01x01 P20
U 1 1 5A6EAD83
P 5750 6950
AR Path="/5A6EAD83" Ref="P20"  Part="1" 
AR Path="/5889CFB3/5A6EAD83" Ref="P20"  Part="1" 
F 0 "P20" V 5750 7050 50  0000 C CNN
F 1 "B" V 5850 6950 50  0000 C CNN
F 2 "Wire_Pads:SolderWirePad_single_0-8mmDrill" H 5750 6950 50  0001 C CNN
F 3 "" H 5750 6950 50  0000 C CNN
	1    5750 6950
	0    1    1    0   
$EndComp
$Comp
L Conn_01x01 P21
U 1 1 5A6EAD8B
P 5950 6950
AR Path="/5A6EAD8B" Ref="P21"  Part="1" 
AR Path="/5889CFB3/5A6EAD8B" Ref="P21"  Part="1" 
F 0 "P21" V 5950 7050 50  0000 C CNN
F 1 "B-CLOCK" V 6050 7050 50  0000 C CNN
F 2 "Wire_Pads:SolderWirePad_single_0-8mmDrill" H 5950 6950 50  0001 C CNN
F 3 "" H 5950 6950 50  0000 C CNN
	1    5950 6950
	0    1    1    0   
$EndComp
$Comp
L 2114 U8
U 1 1 5A6ECC51
P 1800 1300
F 0 "U8" H 1650 1250 60  0000 C CNN
F 1 "2114" H 1950 1250 60  0000 C CNN
F 2 "Housings_DIP:DIP-18_W7.62mm_Socket_LongPads" H 1650 1200 60  0001 C CNN
F 3 "" H 1650 1200 60  0001 C CNN
	1    1800 1300
	1    0    0    -1  
$EndComp
$Comp
L 2114 U9
U 1 1 5A6ECC58
P 3550 1300
F 0 "U9" H 3400 1250 60  0000 C CNN
F 1 "2114" H 3700 1250 60  0000 C CNN
F 2 "Housings_DIP:DIP-18_W7.62mm_Socket_LongPads" H 3400 1200 60  0001 C CNN
F 3 "" H 3400 1200 60  0001 C CNN
	1    3550 1300
	1    0    0    -1  
$EndComp
$Comp
L GND #PWR027
U 1 1 5A6ECC5F
P 2850 1400
F 0 "#PWR027" H 2850 1150 50  0001 C CNN
F 1 "GND" H 2850 1250 50  0000 C CNN
F 2 "" H 2850 1400 50  0000 C CNN
F 3 "" H 2850 1400 50  0000 C CNN
	1    2850 1400
	1    0    0    -1  
$EndComp
$Comp
L +5V #PWR028
U 1 1 5A6ECC65
P 2850 1200
F 0 "#PWR028" H 2850 1050 50  0001 C CNN
F 1 "+5V" H 2850 1340 50  0000 C CNN
F 2 "" H 2850 1200 50  0000 C CNN
F 3 "" H 2850 1200 50  0000 C CNN
	1    2850 1200
	1    0    0    -1  
$EndComp
Text HLabel 850  700  0    50   Input ~ 0
D[0..7]
Entry Wire Line
	3300 700  3400 800 
Entry Wire Line
	3400 700  3500 800 
Entry Wire Line
	3500 700  3600 800 
Entry Wire Line
	3600 700  3700 800 
Entry Wire Line
	1550 700  1650 800 
Entry Wire Line
	1650 700  1750 800 
Entry Wire Line
	1750 700  1850 800 
Entry Wire Line
	1850 700  1950 800 
Text Label 1650 900  0    39   ~ 0
D0
Text Label 1750 900  0    39   ~ 0
D1
Text Label 1850 900  0    39   ~ 0
D2
Text Label 1950 900  0    39   ~ 0
D3
Text Label 3400 900  0    39   ~ 0
D7
Text Label 3500 900  0    39   ~ 0
D6
Text Label 3600 900  0    39   ~ 0
D5
Text Label 3700 900  0    39   ~ 0
D4
$Comp
L 2114 U11
U 1 1 5A6EFA78
P 6850 1300
F 0 "U11" H 6700 1250 60  0000 C CNN
F 1 "2114" H 7000 1250 60  0000 C CNN
F 2 "Housings_DIP:DIP-18_W7.62mm_Socket_LongPads" H 6700 1200 60  0001 C CNN
F 3 "" H 6700 1200 60  0001 C CNN
	1    6850 1300
	1    0    0    -1  
$EndComp
$Comp
L GND #PWR029
U 1 1 5A6EFA7E
P 6150 1400
F 0 "#PWR029" H 6150 1150 50  0001 C CNN
F 1 "GND" H 6150 1250 50  0000 C CNN
F 2 "" H 6150 1400 50  0000 C CNN
F 3 "" H 6150 1400 50  0000 C CNN
	1    6150 1400
	1    0    0    -1  
$EndComp
$Comp
L +5V #PWR030
U 1 1 5A6EFA84
P 6150 1200
F 0 "#PWR030" H 6150 1050 50  0001 C CNN
F 1 "+5V" H 6150 1340 50  0000 C CNN
F 2 "" H 6150 1200 50  0000 C CNN
F 3 "" H 6150 1200 50  0000 C CNN
	1    6150 1200
	1    0    0    -1  
$EndComp
Text Label 4950 900  0    39   ~ 0
D0
Text Label 5050 900  0    39   ~ 0
D1
Text Label 5150 900  0    39   ~ 0
D2
Text Label 5250 900  0    39   ~ 0
D3
Text Label 6700 900  0    39   ~ 0
D7
Text Label 6800 900  0    39   ~ 0
D6
Text Label 6900 900  0    39   ~ 0
D5
Text Label 7000 900  0    39   ~ 0
D4
$Comp
L 2114 U12
U 1 1 5A6EFBAD
P 8400 1300
F 0 "U12" H 8250 1250 60  0000 C CNN
F 1 "2114" H 8550 1250 60  0000 C CNN
F 2 "Housings_DIP:DIP-18_W7.62mm_Socket_LongPads" H 8250 1200 60  0001 C CNN
F 3 "" H 8250 1200 60  0001 C CNN
	1    8400 1300
	1    0    0    -1  
$EndComp
$Comp
L 2114 U13
U 1 1 5A6EFBB3
P 10150 1300
F 0 "U13" H 10000 1250 60  0000 C CNN
F 1 "2114" H 10300 1250 60  0000 C CNN
F 2 "Housings_DIP:DIP-18_W7.62mm_Socket_LongPads" H 10000 1200 60  0001 C CNN
F 3 "" H 10000 1200 60  0001 C CNN
	1    10150 1300
	1    0    0    -1  
$EndComp
$Comp
L GND #PWR031
U 1 1 5A6EFBB9
P 9450 1400
F 0 "#PWR031" H 9450 1150 50  0001 C CNN
F 1 "GND" H 9450 1250 50  0000 C CNN
F 2 "" H 9450 1400 50  0000 C CNN
F 3 "" H 9450 1400 50  0000 C CNN
	1    9450 1400
	1    0    0    -1  
$EndComp
$Comp
L +5V #PWR032
U 1 1 5A6EFBBF
P 9450 1200
F 0 "#PWR032" H 9450 1050 50  0001 C CNN
F 1 "+5V" H 9450 1340 50  0000 C CNN
F 2 "" H 9450 1200 50  0000 C CNN
F 3 "" H 9450 1200 50  0000 C CNN
	1    9450 1200
	1    0    0    -1  
$EndComp
Text Label 8250 900  0    39   ~ 0
D0
Text Label 8350 900  0    39   ~ 0
D1
Text Label 8450 900  0    39   ~ 0
D2
Text Label 8550 900  0    39   ~ 0
D3
Text Label 10000 900  0    39   ~ 0
D7
Text Label 10100 900  0    39   ~ 0
D6
Text Label 10200 900  0    39   ~ 0
D5
Text Label 10300 900  0    39   ~ 0
D4
Entry Wire Line
	9900 700  10000 800 
Entry Wire Line
	10000 700  10100 800 
Entry Wire Line
	10100 700  10200 800 
Entry Wire Line
	10200 700  10300 800 
Entry Wire Line
	8150 700  8250 800 
Entry Wire Line
	8250 700  8350 800 
Entry Wire Line
	8350 700  8450 800 
Entry Wire Line
	8450 700  8550 800 
Entry Wire Line
	6600 700  6700 800 
Entry Wire Line
	6700 700  6800 800 
Entry Wire Line
	6800 700  6900 800 
Entry Wire Line
	6900 700  7000 800 
Entry Wire Line
	4850 700  4950 800 
Entry Wire Line
	4950 700  5050 800 
Entry Wire Line
	5050 700  5150 800 
Entry Wire Line
	5150 700  5250 800 
$Comp
L 2114 U10
U 1 1 5A6EFA72
P 5100 1300
F 0 "U10" H 4950 1250 60  0000 C CNN
F 1 "2114" H 5250 1250 60  0000 C CNN
F 2 "Housings_DIP:DIP-18_W7.62mm_Socket_LongPads" H 4950 1200 60  0001 C CNN
F 3 "" H 4950 1200 60  0001 C CNN
	1    5100 1300
	1    0    0    -1  
$EndComp
Entry Wire Line
	1250 2050 1350 1950
Entry Wire Line
	1350 2050 1450 1950
Entry Wire Line
	1450 2050 1550 1950
Entry Wire Line
	1550 2050 1650 1950
Entry Wire Line
	1650 2050 1750 1950
Entry Wire Line
	1750 2050 1850 1950
Entry Wire Line
	1850 2050 1950 1950
Entry Wire Line
	1950 2050 2050 1950
Entry Wire Line
	2050 2050 2150 1950
Entry Wire Line
	2150 2050 2250 1950
Text Label 1350 1900 1    39   ~ 0
AD0
Text Label 1450 1900 1    39   ~ 0
AD1
Text Label 1550 1900 1    39   ~ 0
AD2
Text Label 1650 1900 1    39   ~ 0
AD3
Text Label 1750 1900 1    39   ~ 0
AD4
Text Label 1850 1900 1    39   ~ 0
AD5
Text Label 1950 1900 1    39   ~ 0
AD6
Text Label 2050 1900 1    39   ~ 0
AD7
Text Label 2150 1900 1    39   ~ 0
AD8
Text Label 2250 1900 1    39   ~ 0
AD9
Entry Wire Line
	3000 2050 3100 1950
Entry Wire Line
	3100 2050 3200 1950
Entry Wire Line
	3200 2050 3300 1950
Entry Wire Line
	3300 2050 3400 1950
Entry Wire Line
	3400 2050 3500 1950
Entry Wire Line
	3500 2050 3600 1950
Entry Wire Line
	3600 2050 3700 1950
Entry Wire Line
	3700 2050 3800 1950
Entry Wire Line
	3800 2050 3900 1950
Entry Wire Line
	3900 2050 4000 1950
Entry Wire Line
	4550 2050 4650 1950
Entry Wire Line
	4650 2050 4750 1950
Entry Wire Line
	4750 2050 4850 1950
Entry Wire Line
	4850 2050 4950 1950
Entry Wire Line
	4950 2050 5050 1950
Entry Wire Line
	5050 2050 5150 1950
Entry Wire Line
	5150 2050 5250 1950
Entry Wire Line
	5250 2050 5350 1950
Entry Wire Line
	5350 2050 5450 1950
Entry Wire Line
	5450 2050 5550 1950
Entry Wire Line
	6300 2050 6400 1950
Entry Wire Line
	6400 2050 6500 1950
Entry Wire Line
	6500 2050 6600 1950
Entry Wire Line
	6600 2050 6700 1950
Entry Wire Line
	6700 2050 6800 1950
Entry Wire Line
	6800 2050 6900 1950
Entry Wire Line
	6900 2050 7000 1950
Entry Wire Line
	7000 2050 7100 1950
Entry Wire Line
	7100 2050 7200 1950
Entry Wire Line
	7200 2050 7300 1950
Entry Wire Line
	7850 2050 7950 1950
Entry Wire Line
	7950 2050 8050 1950
Entry Wire Line
	8050 2050 8150 1950
Entry Wire Line
	8150 2050 8250 1950
Entry Wire Line
	8250 2050 8350 1950
Entry Wire Line
	8350 2050 8450 1950
Entry Wire Line
	8450 2050 8550 1950
Entry Wire Line
	8550 2050 8650 1950
Entry Wire Line
	8650 2050 8750 1950
Entry Wire Line
	8750 2050 8850 1950
Entry Wire Line
	9600 2050 9700 1950
Entry Wire Line
	9700 2050 9800 1950
Entry Wire Line
	9800 2050 9900 1950
Entry Wire Line
	9900 2050 10000 1950
Entry Wire Line
	10000 2050 10100 1950
Entry Wire Line
	10100 2050 10200 1950
Entry Wire Line
	10200 2050 10300 1950
Entry Wire Line
	10300 2050 10400 1950
Entry Wire Line
	10400 2050 10500 1950
Entry Wire Line
	10500 2050 10600 1950
Text HLabel 900  2050 0    50   Input ~ 0
AD[0..9]
Text Label 3100 1900 1    39   ~ 0
AD0
Text Label 3200 1900 1    39   ~ 0
AD1
Text Label 3300 1900 1    39   ~ 0
AD2
Text Label 3400 1900 1    39   ~ 0
AD3
Text Label 3500 1900 1    39   ~ 0
AD4
Text Label 3600 1900 1    39   ~ 0
AD5
Text Label 3700 1900 1    39   ~ 0
AD6
Text Label 3800 1900 1    39   ~ 0
AD7
Text Label 3900 1900 1    39   ~ 0
AD8
Text Label 4000 1900 1    39   ~ 0
AD9
Text Label 4650 1900 1    39   ~ 0
AD0
Text Label 4750 1900 1    39   ~ 0
AD1
Text Label 4850 1900 1    39   ~ 0
AD2
Text Label 4950 1900 1    39   ~ 0
AD3
Text Label 5050 1900 1    39   ~ 0
AD4
Text Label 5150 1900 1    39   ~ 0
AD5
Text Label 5250 1900 1    39   ~ 0
AD6
Text Label 5350 1900 1    39   ~ 0
AD7
Text Label 5450 1900 1    39   ~ 0
AD8
Text Label 5550 1900 1    39   ~ 0
AD9
Text Label 6400 1900 1    39   ~ 0
AD0
Text Label 6500 1900 1    39   ~ 0
AD1
Text Label 6600 1900 1    39   ~ 0
AD2
Text Label 6700 1900 1    39   ~ 0
AD3
Text Label 6800 1900 1    39   ~ 0
AD4
Text Label 6900 1900 1    39   ~ 0
AD5
Text Label 7000 1900 1    39   ~ 0
AD6
Text Label 7100 1900 1    39   ~ 0
AD7
Text Label 7200 1900 1    39   ~ 0
AD8
Text Label 7300 1900 1    39   ~ 0
AD9
Text Label 7950 1900 1    39   ~ 0
AD0
Text Label 8050 1900 1    39   ~ 0
AD1
Text Label 8150 1900 1    39   ~ 0
AD2
Text Label 8250 1900 1    39   ~ 0
AD3
Text Label 8350 1900 1    39   ~ 0
AD4
Text Label 8450 1900 1    39   ~ 0
AD5
Text Label 8550 1900 1    39   ~ 0
AD6
Text Label 8650 1900 1    39   ~ 0
AD7
Text Label 8750 1900 1    39   ~ 0
AD8
Text Label 8850 1900 1    39   ~ 0
AD9
Text Label 9700 1900 1    39   ~ 0
AD0
Text Label 9800 1900 1    39   ~ 0
AD1
Text Label 9900 1900 1    39   ~ 0
AD2
Text Label 10000 1900 1    39   ~ 0
AD3
Text Label 10100 1900 1    39   ~ 0
AD4
Text Label 10200 1900 1    39   ~ 0
AD5
Text Label 10300 1900 1    39   ~ 0
AD6
Text Label 10400 1900 1    39   ~ 0
AD7
Text Label 10500 1900 1    39   ~ 0
AD8
Text Label 10600 1900 1    39   ~ 0
AD9
$Comp
L Conn_02x05_Counter_Clockwise J9
U 1 1 5A6F45E1
P 2550 2600
F 0 "J9" H 2600 2900 50  0000 C CNN
F 1 "CONN_ADDR" H 2600 2300 50  0000 C CNN
F 2 "Housings_DIP:DIP-10_W7.62mm" H 2550 2600 50  0001 C CNN
F 3 "" H 2550 2600 50  0001 C CNN
	1    2550 2600
	1    0    0    -1  
$EndComp
Entry Wire Line
	1950 2050 2050 1950
Entry Wire Line
	1950 2050 2050 2150
Text Label 2050 2300 1    39   ~ 0
AD7
Entry Wire Line
	1550 2050 1650 2150
Text Label 1650 2300 1    39   ~ 0
AD2
Entry Wire Line
	3200 2050 3300 2150
Text Label 3500 2250 1    39   ~ 0
AD1
Entry Wire Line
	1650 2050 1750 2150
Text Label 1750 2300 1    39   ~ 0
AD0
Entry Wire Line
	3000 2050 3100 2150
Entry Wire Line
	3100 2050 3200 2150
Entry Wire Line
	3300 2050 3400 2150
Entry Wire Line
	3400 2050 3500 2150
Entry Wire Line
	1850 2050 1950 2150
Entry Wire Line
	1750 2050 1850 2150
Text Label 3400 2250 1    39   ~ 0
AD3
Text Label 1850 2300 1    39   ~ 0
AD9
Text Label 3300 2250 1    39   ~ 0
AD4
Text Label 1950 2300 1    39   ~ 0
AD8
Text Label 3200 2250 1    39   ~ 0
AD5
Text Label 3100 2250 1    39   ~ 0
AD6
$Comp
L Conn_01x01 P3
U 1 1 5A6F72BD
P 10000 3700
AR Path="/5A6F72BD" Ref="P3"  Part="1" 
AR Path="/5889CFB3/5A6F72BD" Ref="P3"  Part="1" 
F 0 "P3" V 10000 3800 50  0000 C CNN
F 1 "A" V 10100 3700 50  0000 C CNN
F 2 "Wire_Pads:SolderWirePad_single_0-8mmDrill" H 10000 3700 50  0001 C CNN
F 3 "" H 10000 3700 50  0000 C CNN
	1    10000 3700
	0    1    1    0   
$EndComp
Text GLabel 4300 1600 3    39   Input ~ 0
~CS2
Text GLabel 2550 1600 3    39   Input ~ 0
~CS2
Text GLabel 5850 1600 3    39   Input ~ 0
~CS3
Text GLabel 7600 1600 3    39   Input ~ 0
~CS3
Text GLabel 9150 1600 3    39   Input ~ 0
~CS4
Text GLabel 10900 1600 3    39   Input ~ 0
~CS4
$Comp
L +5V #PWR033
U 1 1 5A7032EA
P 7700 1200
F 0 "#PWR033" H 7700 1050 50  0001 C CNN
F 1 "+5V" H 7700 1340 50  0000 C CNN
F 2 "" H 7700 1200 50  0000 C CNN
F 3 "" H 7700 1200 50  0000 C CNN
	1    7700 1200
	1    0    0    -1  
$EndComp
$Comp
L +5V #PWR034
U 1 1 5A703343
P 4400 1200
F 0 "#PWR034" H 4400 1050 50  0001 C CNN
F 1 "+5V" H 4400 1340 50  0000 C CNN
F 2 "" H 4400 1200 50  0000 C CNN
F 3 "" H 4400 1200 50  0000 C CNN
	1    4400 1200
	1    0    0    -1  
$EndComp
$Comp
L +5V #PWR035
U 1 1 5A703404
P 1100 1200
F 0 "#PWR035" H 1100 1050 50  0001 C CNN
F 1 "+5V" H 1100 1340 50  0000 C CNN
F 2 "" H 1100 1200 50  0000 C CNN
F 3 "" H 1100 1200 50  0000 C CNN
	1    1100 1200
	1    0    0    -1  
$EndComp
$Comp
L GND #PWR036
U 1 1 5A70352D
P 1100 1400
F 0 "#PWR036" H 1100 1150 50  0001 C CNN
F 1 "GND" H 1100 1250 50  0000 C CNN
F 2 "" H 1100 1400 50  0000 C CNN
F 3 "" H 1100 1400 50  0000 C CNN
	1    1100 1400
	1    0    0    -1  
$EndComp
$Comp
L GND #PWR037
U 1 1 5A703586
P 4400 1400
F 0 "#PWR037" H 4400 1150 50  0001 C CNN
F 1 "GND" H 4400 1250 50  0000 C CNN
F 2 "" H 4400 1400 50  0000 C CNN
F 3 "" H 4400 1400 50  0000 C CNN
	1    4400 1400
	1    0    0    -1  
$EndComp
$Comp
L GND #PWR038
U 1 1 5A7035DF
P 7700 1400
F 0 "#PWR038" H 7700 1150 50  0001 C CNN
F 1 "GND" H 7700 1250 50  0000 C CNN
F 2 "" H 7700 1400 50  0000 C CNN
F 3 "" H 7700 1400 50  0000 C CNN
	1    7700 1400
	1    0    0    -1  
$EndComp
Text GLabel 2550 1100 1    39   Input ~ 0
W(P)
Text GLabel 4300 1050 1    39   Input ~ 0
W(P)
Text GLabel 9150 1050 1    39   Input ~ 0
W(P)
Text GLabel 10900 1050 1    39   Input ~ 0
W(P)
Text GLabel 5850 1050 1    39   Input ~ 0
W(P)
Text GLabel 7600 1050 1    39   Input ~ 0
W(P)
Entry Wire Line
	4750 2750 4850 2850
Entry Wire Line
	4750 2850 4850 2950
Entry Wire Line
	4750 2950 4850 3050
Entry Wire Line
	4750 3050 4850 3150
Entry Wire Line
	4750 3150 4850 3250
Entry Wire Line
	4750 3250 4850 3350
Entry Wire Line
	4750 3350 4850 3450
Entry Wire Line
	4750 3450 4850 3550
Entry Wire Line
	4750 3550 4850 3650
Entry Wire Line
	4750 3650 4850 3750
Text Label 5000 2850 0    39   ~ 0
AD0
Text Label 5000 2950 0    39   ~ 0
AD1
Text Label 5000 3050 0    39   ~ 0
AD2
Text Label 5000 3150 0    39   ~ 0
AD3
Text Label 5000 3250 0    39   ~ 0
AD4
Text Label 5000 3350 0    39   ~ 0
AD5
Text Label 5000 3450 0    39   ~ 0
AD6
Text Label 5000 3550 0    39   ~ 0
AD7
Text Label 5000 3650 0    39   ~ 0
AD8
Text Label 5000 3750 0    39   ~ 0
AD9
Text Label 6550 2850 0    39   ~ 0
D0
Text Label 6550 2950 0    39   ~ 0
D1
Text Label 6550 3050 0    39   ~ 0
D2
Text Label 6550 3150 0    39   ~ 0
D3
Text Label 6550 3250 0    39   ~ 0
D4
Text Label 6550 3350 0    39   ~ 0
D5
Text Label 6550 3450 0    39   ~ 0
D6
Text Label 6550 3550 0    39   ~ 0
D7
Entry Wire Line
	6700 2850 6800 2750
Entry Wire Line
	6700 2950 6800 2850
Entry Wire Line
	6700 3050 6800 2950
Entry Wire Line
	6700 3150 6800 3050
Entry Wire Line
	6700 3250 6800 3150
Entry Wire Line
	6700 3350 6800 3250
Entry Wire Line
	6700 3450 6800 3350
Entry Wire Line
	6700 3550 6800 3450
Text GLabel 4975 4950 0    39   Input ~ 0
~CS0
$Comp
L GND #PWR039
U 1 1 5A72DE76
P 3250 3725
F 0 "#PWR039" H 3250 3475 50  0001 C CNN
F 1 "GND" H 3250 3575 50  0000 C CNN
F 2 "" H 3250 3725 50  0001 C CNN
F 3 "" H 3250 3725 50  0001 C CNN
	1    3250 3725
	1    0    0    -1  
$EndComp
Text GLabel 9600 4800 0    61   Input ~ 0
W(P)
$Comp
L Conn_01x01 P26
U 1 1 5A72FD5D
P 9750 5050
AR Path="/5A72FD5D" Ref="P26"  Part="1" 
AR Path="/5889CFB3/5A72FD5D" Ref="P26"  Part="1" 
F 0 "P26" V 9750 5150 50  0000 C CNN
F 1 "G-W(P)" V 9850 5050 50  0000 C CNN
F 2 "Wire_Pads:SolderWirePad_single_0-8mmDrill" H 9750 5050 50  0001 C CNN
F 3 "" H 9750 5050 50  0000 C CNN
	1    9750 5050
	0    1    1    0   
$EndComp
$Comp
L Conn_01x01 P27
U 1 1 5A72FD63
P 10050 5050
AR Path="/5A72FD63" Ref="P27"  Part="1" 
AR Path="/5889CFB3/5A72FD63" Ref="P27"  Part="1" 
F 0 "P27" V 10050 5150 50  0000 C CNN
F 1 "G" V 10150 5050 50  0000 C CNN
F 2 "Wire_Pads:SolderWirePad_single_0-8mmDrill" H 10050 5050 50  0001 C CNN
F 3 "" H 10050 5050 50  0000 C CNN
	1    10050 5050
	0    1    1    0   
$EndComp
Wire Wire Line
	9100 1200 9150 1200
Wire Wire Line
	8550 800  8550 900 
Wire Wire Line
	8450 900  8450 800 
Wire Wire Line
	8350 900  8350 800 
Wire Wire Line
	10300 900  10300 800 
Wire Wire Line
	10200 900  10200 800 
Wire Wire Line
	10100 900  10100 800 
Wire Wire Line
	10000 800  10000 900 
Wire Wire Line
	8250 800  8250 900 
Wire Wire Line
	5800 1200 5850 1200
Wire Wire Line
	5250 800  5250 900 
Wire Wire Line
	5150 900  5150 800 
Wire Wire Line
	5050 900  5050 800 
Wire Wire Line
	7000 900  7000 800 
Wire Wire Line
	6900 900  6900 800 
Wire Wire Line
	6800 900  6800 800 
Wire Wire Line
	6700 800  6700 900 
Wire Wire Line
	4950 800  4950 900 
Wire Bus Line
	850  700  10300 700 
Wire Bus Line
	1650 700  1700 700 
Wire Wire Line
	2500 1200 2550 1200
Wire Wire Line
	2250 1800 2250 1950
Wire Wire Line
	2150 1800 2150 1950
Wire Wire Line
	2050 1800 2050 1950
Wire Wire Line
	1950 1800 1950 1950
Wire Wire Line
	1850 1800 1850 1950
Wire Wire Line
	1750 1800 1750 1950
Wire Wire Line
	1650 1800 1650 1950
Wire Wire Line
	1550 1800 1550 1950
Wire Wire Line
	1450 1800 1450 1950
Wire Wire Line
	1350 1800 1350 1950
Wire Wire Line
	1950 800  1950 900 
Wire Wire Line
	1850 900  1850 800 
Wire Wire Line
	1750 900  1750 800 
Wire Wire Line
	3700 900  3700 800 
Wire Wire Line
	3600 900  3600 800 
Wire Wire Line
	3500 900  3500 800 
Wire Wire Line
	3400 800  3400 900 
Wire Wire Line
	1650 800  1650 900 
Wire Wire Line
	4900 6650 5950 6650
Connection ~ 5750 6650
Wire Wire Line
	5950 6650 5950 6750
Wire Wire Line
	5750 6650 5750 6750
Connection ~ 9900 5550
Wire Wire Line
	10200 5550 10200 5700
Connection ~ 8400 5550
Wire Wire Line
	8700 5550 8700 5700
Connection ~ 7250 5550
Wire Wire Line
	7250 5550 7250 5700
Connection ~ 7000 5550
Wire Wire Line
	9900 5550 9900 5700
Wire Wire Line
	9600 5550 10200 5550
Wire Wire Line
	8400 5550 8400 5700
Wire Wire Line
	8100 5550 8700 5550
Wire Wire Line
	7000 5550 7000 5700
Wire Wire Line
	6700 5550 7250 5550
Wire Wire Line
	8350 4800 8350 4950
Wire Wire Line
	8050 4800 8350 4800
Wire Wire Line
	7000 4800 7000 4850
Wire Wire Line
	6700 4800 7000 4800
Wire Wire Line
	8450 4100 8450 4150
Wire Wire Line
	8150 4100 8450 4100
Wire Wire Line
	8450 3000 8450 3300
Wire Wire Line
	8450 3200 8650 3200
Connection ~ 8450 3200
Wire Wire Line
	8650 3200 8650 3300
Wire Wire Line
	9400 3400 10000 3400
Wire Wire Line
	9700 3500 9700 3400
Connection ~ 9850 4175
Connection ~ 10050 4175
Wire Wire Line
	9550 4175 10250 4175
Wire Bus Line
	6800 2200 6950 2200
Wire Bus Line
	6800 2200 6800 3600
Wire Wire Line
	6900 3700 7050 3700
Wire Wire Line
	6900 3600 7050 3600
Wire Wire Line
	6900 3500 7050 3500
Wire Wire Line
	6900 3400 7050 3400
Wire Wire Line
	6900 3300 7050 3300
Wire Wire Line
	6900 3200 7050 3200
Wire Wire Line
	6900 3100 7050 3100
Wire Wire Line
	6900 3000 7050 3000
Wire Bus Line
	6800 2900 6800 3250
Wire Bus Line
	900  2050 10500 2050
Wire Wire Line
	4000 1800 4000 1950
Wire Wire Line
	3900 1800 3900 1950
Wire Wire Line
	3800 1800 3800 1950
Wire Wire Line
	3700 1800 3700 1950
Wire Wire Line
	3600 1800 3600 1950
Wire Wire Line
	3500 1800 3500 1950
Wire Wire Line
	3400 1800 3400 1950
Wire Wire Line
	3300 1800 3300 1950
Wire Wire Line
	3200 1800 3200 1950
Wire Wire Line
	3100 1800 3100 1950
Wire Wire Line
	5550 1800 5550 1950
Wire Wire Line
	5450 1800 5450 1950
Wire Wire Line
	5350 1800 5350 1950
Wire Wire Line
	5250 1800 5250 1950
Wire Wire Line
	5150 1800 5150 1950
Wire Wire Line
	5050 1800 5050 1950
Wire Wire Line
	4950 1800 4950 1950
Wire Wire Line
	4850 1800 4850 1950
Wire Wire Line
	4750 1800 4750 1950
Wire Wire Line
	4650 1800 4650 1950
Wire Wire Line
	7300 1800 7300 1950
Wire Wire Line
	7200 1800 7200 1950
Wire Wire Line
	7100 1800 7100 1950
Wire Wire Line
	7000 1800 7000 1950
Wire Wire Line
	6900 1800 6900 1950
Wire Wire Line
	6800 1800 6800 1950
Wire Wire Line
	6700 1800 6700 1950
Wire Wire Line
	6600 1800 6600 1950
Wire Wire Line
	6500 1800 6500 1950
Wire Wire Line
	6400 1800 6400 1950
Wire Wire Line
	8850 1800 8850 1950
Wire Wire Line
	8750 1800 8750 1950
Wire Wire Line
	8650 1800 8650 1950
Wire Wire Line
	8550 1800 8550 1950
Wire Wire Line
	8450 1800 8450 1950
Wire Wire Line
	8350 1800 8350 1950
Wire Wire Line
	8250 1800 8250 1950
Wire Wire Line
	8150 1800 8150 1950
Wire Wire Line
	8050 1800 8050 1950
Wire Wire Line
	7950 1800 7950 1950
Wire Wire Line
	10600 1800 10600 1950
Wire Wire Line
	10500 1800 10500 1950
Wire Wire Line
	10400 1800 10400 1950
Wire Wire Line
	10300 1800 10300 1950
Wire Wire Line
	10200 1800 10200 1950
Wire Wire Line
	10100 1800 10100 1950
Wire Wire Line
	10000 1800 10000 1950
Wire Wire Line
	9900 1800 9900 1950
Wire Wire Line
	9800 1800 9800 1950
Wire Wire Line
	9700 1800 9700 1950
Wire Wire Line
	2050 2150 2050 2400
Wire Wire Line
	2050 2400 2350 2400
Wire Wire Line
	2350 2800 1650 2800
Wire Wire Line
	1650 2800 1650 2150
Wire Wire Line
	2850 2800 3500 2800
Wire Wire Line
	3500 2800 3500 2150
Wire Wire Line
	2350 2700 1750 2700
Wire Wire Line
	1750 2700 1750 2150
Wire Wire Line
	2850 2700 3400 2700
Wire Wire Line
	3400 2700 3400 2150
Wire Wire Line
	1850 2150 1850 2600
Wire Wire Line
	1850 2600 2350 2600
Wire Wire Line
	3300 2150 3300 2600
Wire Wire Line
	3300 2600 2850 2600
Wire Wire Line
	1950 2150 1950 2500
Wire Wire Line
	1950 2500 2350 2500
Wire Wire Line
	3200 2150 3200 2500
Wire Wire Line
	3200 2500 2850 2500
Wire Wire Line
	3100 2150 3100 2400
Wire Wire Line
	3100 2400 2850 2400
Wire Wire Line
	10000 3400 10000 3500
Connection ~ 9700 3400
Wire Wire Line
	2500 1400 2550 1400
Wire Wire Line
	2550 1400 2550 1600
Wire Wire Line
	4250 1400 4300 1400
Wire Wire Line
	4300 1400 4300 1600
Wire Wire Line
	5850 1600 5850 1400
Wire Wire Line
	5850 1400 5800 1400
Wire Wire Line
	7600 1600 7600 1400
Wire Wire Line
	7600 1400 7550 1400
Wire Wire Line
	9150 1600 9150 1400
Wire Wire Line
	9150 1400 9100 1400
Wire Wire Line
	10900 1600 10900 1400
Wire Wire Line
	10900 1400 10850 1400
Wire Wire Line
	2550 1200 2550 1100
Wire Wire Line
	4250 1200 4300 1200
Wire Wire Line
	4300 1200 4300 1050
Wire Wire Line
	9150 1200 9150 1050
Wire Wire Line
	10850 1200 10900 1200
Wire Wire Line
	10900 1200 10900 1050
Wire Wire Line
	5850 1200 5850 1050
Wire Wire Line
	7550 1200 7600 1200
Wire Wire Line
	7600 1200 7600 1050
Wire Bus Line
	4750 2050 4750 3650
Wire Bus Line
	4750 2050 4800 2050
Wire Wire Line
	5075 3750 4850 3750
Wire Wire Line
	5075 3650 4850 3650
Wire Wire Line
	5075 3550 4850 3550
Wire Wire Line
	5075 3450 4850 3450
Wire Wire Line
	5075 3350 4850 3350
Wire Wire Line
	5075 3250 4850 3250
Wire Wire Line
	5075 3150 4850 3150
Wire Wire Line
	5075 3050 4850 3050
Wire Wire Line
	5075 2950 4850 2950
Wire Wire Line
	5075 2850 4850 2850
Wire Wire Line
	6475 2850 6700 2850
Wire Wire Line
	6475 2950 6700 2950
Wire Wire Line
	6475 3050 6700 3050
Wire Wire Line
	6475 3150 6700 3150
Wire Wire Line
	6475 3250 6700 3250
Wire Wire Line
	6475 3350 6700 3350
Wire Wire Line
	6475 3450 6700 3450
Wire Wire Line
	6475 3550 6700 3550
Wire Wire Line
	3750 3525 4500 3525
Wire Wire Line
	4425 3950 5075 3950
Wire Wire Line
	3750 3625 4425 3625
Wire Wire Line
	4500 3850 5075 3850
Wire Wire Line
	3900 3425 3900 3625
Connection ~ 3900 3625
Wire Wire Line
	4200 3525 4200 3425
Connection ~ 4200 3525
Wire Wire Line
	3450 3525 3250 3525
Wire Wire Line
	3250 3625 3450 3625
Wire Wire Line
	9600 4800 10050 4800
Wire Wire Line
	9750 4800 9750 4850
Wire Wire Line
	10050 4800 10050 4850
Connection ~ 9750 4800
$Comp
L R J17
U 1 1 5A7865F1
P 3900 3275
F 0 "J17" V 3980 3275 50  0000 C CNN
F 1 "0R" V 3900 3275 50  0000 C CNN
F 2 "Pin_Headers:Pin_Header_Straight_1x02_Pitch2.54mm" V 3830 3275 50  0001 C CNN
F 3 "" H 3900 3275 50  0001 C CNN
	1    3900 3275
	-1   0    0    1   
$EndComp
$Comp
L R R4
U 1 1 5A7866D7
P 3600 3525
F 0 "R4" V 3500 3525 50  0000 C CNN
F 1 "10K" V 3600 3525 50  0000 C CNN
F 2 "Resistors_THT:R_Axial_DIN0207_L6.3mm_D2.5mm_P10.16mm_Horizontal" V 3530 3525 50  0001 C CNN
F 3 "" H 3600 3525 50  0001 C CNN
	1    3600 3525
	0    1    1    0   
$EndComp
$Comp
L R R5
U 1 1 5A786857
P 3600 3625
F 0 "R5" V 3700 3625 50  0000 C CNN
F 1 "10K" V 3600 3625 50  0000 C CNN
F 2 "Resistors_THT:R_Axial_DIN0207_L6.3mm_D2.5mm_P10.16mm_Horizontal" V 3530 3625 50  0001 C CNN
F 3 "" H 3600 3625 50  0001 C CNN
	1    3600 3625
	0    1    1    0   
$EndComp
Wire Wire Line
	3250 3525 3250 3725
Connection ~ 3250 3625
$Comp
L R J18
U 1 1 5A786EC4
P 4200 3275
F 0 "J18" V 4280 3275 50  0000 C CNN
F 1 "0R" V 4200 3275 50  0000 C CNN
F 2 "Pin_Headers:Pin_Header_Straight_1x02_Pitch2.54mm" V 4130 3275 50  0001 C CNN
F 3 "" H 4200 3275 50  0001 C CNN
	1    4200 3275
	-1   0    0    1   
$EndComp
$Comp
L +5V #PWR040
U 1 1 5A786FBA
P 4050 2975
F 0 "#PWR040" H 4050 2825 50  0001 C CNN
F 1 "+5V" H 4050 3115 50  0000 C CNN
F 2 "" H 4050 2975 50  0001 C CNN
F 3 "" H 4050 2975 50  0001 C CNN
	1    4050 2975
	1    0    0    -1  
$EndComp
Wire Wire Line
	4200 2975 4200 3125
Wire Wire Line
	3900 2975 4200 2975
Wire Wire Line
	3900 2975 3900 3125
Connection ~ 4050 2975
$Comp
L Conn_01x03 J1
U 1 1 5A8EAF1B
P 9800 2850
F 0 "J1" H 9800 3050 50  0000 C CNN
F 1 "TTL" H 9800 2650 50  0000 C CNN
F 2 "Pin_Headers:Pin_Header_Straight_1x03_Pitch2.54mm" H 9800 2850 50  0001 C CNN
F 3 "" H 9800 2850 50  0001 C CNN
	1    9800 2850
	1    0    0    -1  
$EndComp
$Comp
L GND #PWR041
U 1 1 5A8EB01A
P 8800 2650
F 0 "#PWR041" H 8800 2400 50  0001 C CNN
F 1 "GND" H 8800 2500 50  0000 C CNN
F 2 "" H 8800 2650 50  0001 C CNN
F 3 "" H 8800 2650 50  0001 C CNN
	1    8800 2650
	1    0    0    -1  
$EndComp
Text GLabel 9350 2850 0    60   Input ~ 0
FLAG
Wire Wire Line
	9350 2850 9600 2850
Wire Wire Line
	9500 2950 9500 3400
Wire Wire Line
	9500 2950 9600 2950
Wire Wire Line
	9500 2850 9500 2850
Wire Wire Line
	9600 2750 9600 2550
Wire Wire Line
	9600 2550 8800 2550
Wire Wire Line
	8800 2550 8800 2650
$Comp
L 74LS123 U5
U 1 1 5A91052E
P 1850 6650
F 0 "U5" H 1850 6600 50  0000 C CNN
F 1 "74LS123" H 1850 6500 50  0000 C CNN
F 2 "Housings_DIP:DIP-16_W7.62mm_LongPads" H 1850 6650 50  0001 C CNN
F 3 "" H 1850 6650 50  0001 C CNN
	1    1850 6650
	1    0    0    -1  
$EndComp
$Comp
L 74LS123 U5
U 2 1 5A910535
P 3750 6650
F 0 "U5" H 3750 6600 50  0000 C CNN
F 1 "74LS123" H 3750 6500 50  0000 C CNN
F 2 "" H 3750 6650 50  0001 C CNN
F 3 "" H 3750 6650 50  0001 C CNN
	2    3750 6650
	1    0    0    -1  
$EndComp
Text GLabel 5050 6350 2    60   Output ~ 0
CLOCK
$Comp
L Oscillator Y1
U 1 1 5A91053D
P 2775 4275
F 0 "Y1" H 2775 4475 50  0000 C CNN
F 1 "Oscillator" H 2925 4075 50  0000 C CNN
F 2 "Housings_DIP:DIP-8_W7.62mm_LongPads" H 2775 4275 50  0001 C CNN
F 3 "" H 2775 4275 50  0001 C CNN
	1    2775 4275
	1    0    0    -1  
$EndComp
Text GLabel 1875 4275 0    60   Output ~ 0
CLOCK
$Comp
L GND #PWR042
U 1 1 5A910545
P 2675 4825
F 0 "#PWR042" H 2675 4575 50  0001 C CNN
F 1 "GND" H 2675 4675 50  0000 C CNN
F 2 "" H 2675 4825 50  0001 C CNN
F 3 "" H 2675 4825 50  0001 C CNN
	1    2675 4825
	1    0    0    -1  
$EndComp
$Comp
L +5V #PWR043
U 1 1 5A91054B
P 2625 3925
F 0 "#PWR043" H 2625 3775 50  0001 C CNN
F 1 "+5V" H 2625 4065 50  0000 C CNN
F 2 "" H 2625 3925 50  0001 C CNN
F 3 "" H 2625 3925 50  0001 C CNN
	1    2625 3925
	1    0    0    -1  
$EndComp
$Comp
L C_Small C7
U 1 1 5A910551
P 2050 5700
F 0 "C7" H 2060 5770 50  0000 L CNN
F 1 "270p" H 2060 5620 50  0000 L CNN
F 2 "Capacitors_THT:C_Disc_D3.8mm_W2.6mm_P2.50mm" H 2050 5700 50  0001 C CNN
F 3 "" H 2050 5700 50  0001 C CNN
	1    2050 5700
	1    0    0    -1  
$EndComp
$Comp
L R_Small R6
U 1 1 5A910558
P 1650 5350
F 0 "R6" H 1680 5370 50  0000 L CNN
F 1 "6k8" H 1680 5310 50  0000 L CNN
F 2 "Resistors_THT:R_Axial_DIN0411_L9.9mm_D3.6mm_P12.70mm_Horizontal" H 1650 5350 50  0001 C CNN
F 3 "" H 1650 5350 50  0001 C CNN
	1    1650 5350
	1    0    0    -1  
$EndComp
$Comp
L R_Small R7
U 1 1 5A91055F
P 3550 5350
F 0 "R7" H 3580 5370 50  0000 L CNN
F 1 "22k" H 3580 5310 50  0000 L CNN
F 2 "Resistors_THT:R_Axial_DIN0411_L9.9mm_D3.6mm_P12.70mm_Horizontal" H 3550 5350 50  0001 C CNN
F 3 "" H 3550 5350 50  0001 C CNN
	1    3550 5350
	1    0    0    -1  
$EndComp
$Comp
L GND #PWR044
U 1 1 5A910566
P 750 6400
F 0 "#PWR044" H 750 6150 50  0001 C CNN
F 1 "GND" H 750 6250 50  0000 C CNN
F 2 "" H 750 6400 50  0001 C CNN
F 3 "" H 750 6400 50  0001 C CNN
	1    750  6400
	1    0    0    -1  
$EndComp
$Comp
L GND #PWR045
U 1 1 5A91056C
P 2900 6550
F 0 "#PWR045" H 2900 6300 50  0001 C CNN
F 1 "GND" H 2900 6400 50  0000 C CNN
F 2 "" H 2900 6550 50  0001 C CNN
F 3 "" H 2900 6550 50  0001 C CNN
	1    2900 6550
	1    0    0    -1  
$EndComp
$Comp
L R_Small R8
U 1 1 5A910572
P 4700 5450
F 0 "R8" H 4730 5470 50  0000 L CNN
F 1 "2k2" H 4730 5410 50  0000 L CNN
F 2 "Resistors_THT:R_Axial_DIN0411_L9.9mm_D3.6mm_P12.70mm_Horizontal" H 4700 5450 50  0001 C CNN
F 3 "" H 4700 5450 50  0001 C CNN
	1    4700 5450
	1    0    0    -1  
$EndComp
$Comp
L +5V #PWR046
U 1 1 5A910579
P 4250 4150
F 0 "#PWR046" H 4250 4000 50  0001 C CNN
F 1 "+5V" H 4250 4290 50  0000 C CNN
F 2 "" H 4250 4150 50  0001 C CNN
F 3 "" H 4250 4150 50  0001 C CNN
	1    4250 4150
	1    0    0    -1  
$EndComp
$Comp
L POT RV1
U 1 1 5A91057F
P 1900 5100
F 0 "RV1" V 1725 5100 50  0000 C CNN
F 1 "10k" V 1800 5100 50  0000 C CNN
F 2 "Potentiometers:Potentiometer_WirePads_largePads" H 1900 5100 50  0001 C CNN
F 3 "" H 1900 5100 50  0001 C CNN
	1    1900 5100
	0    -1   -1   0   
$EndComp
Wire Wire Line
	4500 6350 5050 6350
Wire Wire Line
	1875 4275 2275 4275
Wire Wire Line
	2675 4825 2675 4625
Wire Wire Line
	2625 4025 2625 3925
Wire Wire Line
	3950 5850 3950 5800
Connection ~ 3550 5550
Wire Wire Line
	2050 5850 2050 5800
Wire Wire Line
	1650 5450 1650 5850
Wire Wire Line
	2650 6950 2650 7600
Wire Wire Line
	2650 7600 1000 7600
Wire Wire Line
	1000 7600 1000 6450
Wire Wire Line
	1000 6450 1100 6450
Wire Wire Line
	2600 6950 2650 6950
Wire Wire Line
	2600 6350 2800 6350
Wire Wire Line
	2800 6350 2800 6450
Wire Wire Line
	2800 6450 3000 6450
Wire Wire Line
	1100 6300 750  6300
Wire Wire Line
	750  6300 750  6400
Wire Wire Line
	3000 6300 2900 6300
Wire Wire Line
	2900 6300 2900 6550
Wire Wire Line
	4700 7450 1850 7450
Wire Wire Line
	4050 4150 5075 4150
Wire Wire Line
	4700 4150 4700 5350
Wire Wire Line
	4700 5550 4700 7450
Connection ~ 3750 7450
Wire Wire Line
	1650 4950 1650 5250
Wire Wire Line
	1650 5100 1750 5100
Wire Wire Line
	1900 4950 1650 4950
Connection ~ 1650 5100
Wire Wire Line
	2050 5100 4700 5100
Wire Wire Line
	3550 5250 3550 5100
Connection ~ 3550 5100
Connection ~ 4700 5100
Wire Wire Line
	2050 5550 1650 5550
Connection ~ 1650 5550
Wire Wire Line
	3550 5450 3550 5850
Text GLabel 5050 5750 2    60   Output ~ 0
PULLUP
Wire Wire Line
	5050 5750 4700 5750
Connection ~ 4700 5750
$Comp
L C_Small C8
U 1 1 5A9105AC
P 3950 5700
F 0 "C8" H 3960 5770 50  0000 L CNN
F 1 "47p" H 3960 5620 50  0000 L CNN
F 2 "Capacitors_THT:C_Disc_D4.3mm_W1.9mm_P5.00mm" H 3950 5700 50  0001 C CNN
F 3 "" H 3950 5700 50  0001 C CNN
	1    3950 5700
	1    0    0    -1  
$EndComp
Wire Wire Line
	3950 5600 3950 5550
Wire Wire Line
	3950 5550 3550 5550
Wire Wire Line
	2050 5550 2050 5600
NoConn ~ 4500 6950
NoConn ~ 3125 4225
Wire Wire Line
	2975 4225 3125 4225
Wire Wire Line
	4900 6650 4900 6350
Connection ~ 4900 6350
Wire Wire Line
	8450 3000 9400 3000
Wire Wire Line
	9400 3000 9400 2850
Connection ~ 9400 2850
Connection ~ 9500 3400
$Comp
L +5V #PWR047
U 1 1 5D3CE272
P 5850 2450
F 0 "#PWR047" H 5850 2300 50  0001 C CNN
F 1 "+5V" H 5850 2590 50  0000 C CNN
F 2 "" H 5850 2450 50  0001 C CNN
F 3 "" H 5850 2450 50  0001 C CNN
	1    5850 2450
	1    0    0    -1  
$EndComp
$Comp
L GND #PWR048
U 1 1 5D3CE2FE
P 5025 5150
F 0 "#PWR048" H 5025 4900 50  0001 C CNN
F 1 "GND" H 5025 5000 50  0000 C CNN
F 2 "" H 5025 5150 50  0001 C CNN
F 3 "" H 5025 5150 50  0001 C CNN
	1    5025 5150
	1    0    0    -1  
$EndComp
Text Notes 575  2950 0    39   ~ 0
2716
Text Notes 825  2950 0    39   ~ 0
2732
Text Notes 1075 2950 0    39   ~ 0
2764
Wire Notes Line
	1025 2975 1025 3650
Text Notes 1325 2950 0    39   ~ 0
27128
Text Notes 1575 2950 0    39   ~ 0
27256
Text Notes 1825 2950 0    39   ~ 0
27512
Text Notes 2075 2950 0    39   ~ 0
27010
Wire Notes Line
	525  2975 1725 2975
Wire Notes Line
	1750 2975 2300 2975
Text Notes 550  3050 0    39   ~ 0
18 EP
Wire Notes Line
	525  3050 2300 3050
Wire Notes Line
	525  3125 2300 3125
Text Notes 550  3200 0    39   ~ 0
20 G
Text Notes 550  3275 0    39   ~ 0
21 VPP
Text Notes 550  3350 0    39   ~ 0
24 VCC
Wire Notes Line
	525  3200 2300 3200
Wire Notes Line
	525  3275 2300 3275
Wire Notes Line
	525  3350 2300 3350
Text Notes 800  3050 0    39   ~ 0
18 CE
Text Notes 800  3200 0    39   ~ 0
20 OE
Text Notes 800  3275 0    39   ~ 0
21 A11
Text Notes 800  3350 0    39   ~ 0
24 VCC
Text Notes 1050 3050 0    39   ~ 0
20 CE
Text Notes 1050 3200 0    39   ~ 0
22 OE
Text Notes 1050 3275 0    39   ~ 0
23 A11
Text Notes 1050 3350 0    39   ~ 0
26 NC
Text Notes 1050 3425 0    39   ~ 0
1 VPP
Text Notes 1050 3500 0    39   ~ 0
2 A12
Text Notes 1050 3575 0    39   ~ 0
27 PGM
Text Notes 1050 3650 0    39   ~ 0
28 VCC
Wire Notes Line
	1300 3650 1300 2975
Wire Notes Line
	525  3350 525  2975
Wire Notes Line
	775  3350 775  2975
Wire Notes Line
	1025 3425 2300 3425
Wire Notes Line
	1025 3500 2300 3500
Wire Notes Line
	1025 3575 2300 3575
Wire Notes Line
	1025 3650 2300 3650
Text Notes 1325 3650 0    39   ~ 0
28 VCC
Wire Notes Line
	1550 3650 1550 2975
Text Notes 1325 3575 0    39   ~ 0
27 PGM
Text Notes 1325 3425 0    39   ~ 0
1 VPP
Text Notes 1325 3500 0    39   ~ 0
2 A12
Text Notes 1325 3350 0    39   ~ 0
26 A13
Text Notes 1325 3275 0    39   ~ 0
23 A11
Text Notes 1325 3200 0    39   ~ 0
22 G
Text Notes 1325 3050 0    39   ~ 0
20 CE
Text Notes 1575 3425 0    39   ~ 0
1 VPP
Text Notes 1575 3500 0    39   ~ 0
2 A12
Text Notes 1575 3575 0    39   ~ 0
27 A14
Wire Notes Line
	1800 3650 1800 2975
Text Notes 1575 3650 0    39   ~ 0
28 VCC
Text Notes 1575 3350 0    39   ~ 0
26 A13
Text Notes 1575 3275 0    39   ~ 0
23 A11
Text Notes 1575 3200 0    39   ~ 0
22 G
Text Notes 1575 3050 0    39   ~ 0
20 CE
Text Notes 1825 3650 0    39   ~ 0
28 VCC
Text Notes 1825 3575 0    39   ~ 0
27 A14
Text Notes 1825 3500 0    39   ~ 0
2 A12
Text Notes 1825 3425 0    39   ~ 0
1 A15
Wire Notes Line
	2050 2975 2050 3950
Text Notes 1825 3350 0    39   ~ 0
26 A13
Text Notes 1825 3275 0    39   ~ 0
23 A11
Text Notes 1825 3200 0    39   ~ 0
22 G
Text Notes 1825 3050 0    39   ~ 0
20 CE
Text Notes 2075 3050 0    39   ~ 0
22 CE
Wire Notes Line
	2300 2975 2300 3950
Wire Notes Line
	2300 3575 2300 3600
Text Notes 2075 3200 0    39   ~ 0
24 OE
Text Notes 2075 3275 0    39   ~ 0
25 A11
Text Notes 2075 3350 0    39   ~ 0
28 A13
Text Notes 2075 3425 0    39   ~ 0
3 A15
Text Notes 2075 3500 0    39   ~ 0
4 A12
Text Notes 2075 3575 0    39   ~ 0
29 A14
Text Notes 2075 3650 0    39   ~ 0
30 NC
Text Notes 2075 3725 0    39   ~ 0
1 VPP
Text Notes 2075 3800 0    39   ~ 0
2 A16
Text Notes 2075 3875 0    39   ~ 0
31 PGM
Text Notes 2075 3950 0    39   ~ 0
32 VCC
Wire Notes Line
	2300 3725 2050 3725
Wire Notes Line
	2300 3800 2050 3800
Wire Notes Line
	2300 3875 2050 3875
Wire Notes Line
	2300 3950 2050 3950
Wire Wire Line
	5075 4950 4975 4950
Text Notes 2325 3050 0    39   ~ 0
CS0
Text Notes 2075 3125 0    39   ~ 0
23 A10
Text Notes 1825 3125 0    39   ~ 0
21 A10
Text Notes 1575 3125 0    39   ~ 0
21 A10
Text Notes 1325 3125 0    39   ~ 0
21 A10
Text Notes 1050 3125 0    39   ~ 0
21 A10
Text Notes 800  3125 0    39   ~ 0
19 A10
Text Notes 550  3125 0    39   ~ 0
19 A10
Text Notes 2325 3125 0    39   ~ 0
J18
Text Notes 2325 3275 0    39   ~ 0
J17
Text Notes 2325 3350 0    39   ~ 0
VCC
Text Notes 2325 3200 0    39   ~ 0
GND
Text Notes 2325 3875 0    39   ~ 0
VCC
Text Notes 2325 3950 0    39   ~ 0
VCC
Text Notes 2325 3425 0    39   ~ 0
GND
Text Notes 2325 3500 0    39   ~ 0
GND
Text Notes 2325 3575 0    39   ~ 0
VCC
Text Notes 2325 3650 0    39   ~ 0
VCC
Text Notes 2325 3725 0    39   ~ 0
GND
Text Notes 2325 3800 0    39   ~ 0
GND
$Comp
L 27C010 U15
U 1 1 5D3EF5AD
P 5775 3750
F 0 "U15" H 5875 4750 50  0000 C CNN
F 1 "27C010" H 5775 2350 50  0000 C CNN
F 2 "Housings_DIP:DIP-32_W15.24mm_Socket_LongPads" H 5775 3750 50  0001 C CNN
F 3 "" H 5775 3750 50  0001 C CNN
	1    5775 3750
	1    0    0    -1  
$EndComp
Wire Wire Line
	5025 5050 5075 5050
Wire Wire Line
	5025 4050 5025 5150
Wire Wire Line
	5075 4750 5025 4750
Connection ~ 5025 5050
Wire Wire Line
	5075 4450 5025 4450
Connection ~ 5025 4750
Wire Wire Line
	5075 4050 5025 4050
Connection ~ 5025 4450
Wire Wire Line
	5075 4350 5025 4350
Connection ~ 5025 4350
Wire Wire Line
	5075 4650 4700 4650
Connection ~ 4700 4650
Wire Wire Line
	4500 3525 4500 3850
Wire Wire Line
	4425 3625 4425 3950
Wire Wire Line
	5075 4250 4700 4250
Connection ~ 4700 4250
Connection ~ 4700 4150
$Comp
L LED D5
U 1 1 5D3F4051
P 3900 4150
F 0 "D5" H 3900 4250 50  0000 C CNN
F 1 "LED" H 3900 4050 50  0000 C CNN
F 2 "LEDs:LED_D3.0mm" H 3900 4150 50  0001 C CNN
F 3 "" H 3900 4150 50  0001 C CNN
	1    3900 4150
	1    0    0    -1  
$EndComp
$Comp
L R R19
U 1 1 5D3F4112
P 3475 4400
F 0 "R19" V 3555 4400 50  0000 C CNN
F 1 "150R" V 3475 4400 50  0000 C CNN
F 2 "Resistors_THT:R_Axial_DIN0204_L3.6mm_D1.6mm_P7.62mm_Horizontal" V 3405 4400 50  0001 C CNN
F 3 "" H 3475 4400 50  0001 C CNN
	1    3475 4400
	1    0    0    -1  
$EndComp
Wire Wire Line
	3750 4150 3475 4150
Wire Wire Line
	3475 4150 3475 4250
Wire Wire Line
	3475 4550 3475 4750
Wire Wire Line
	3475 4750 2675 4750
Connection ~ 2675 4750
Connection ~ 4250 4150
$EndSCHEMATC
