(module C_Axial_L3.8mm_D2.6mm_P25.00mm_Horizontal (layer F.Cu) (tedit 5A71316F)
  (descr "C, Axial series, Axial, Horizontal, pin pitch=15mm, , length*diameter=3.8*2.6mm^2, http://www.vishay.com/docs/45231/arseries.pdf")
  (tags "C Axial series Axial Horizontal pin pitch 15mm  length 3.8mm diameter 2.6mm")
  (fp_text reference C2 (at 10.04 -2.36) (layer F.SilkS)
    (effects (font (size 1 1) (thickness 0.15)))
  )
  (fp_text value 0.1uF (at 10.04 2.36) (layer F.Fab)
    (effects (font (size 1 1) (thickness 0.15)))
  )
  (fp_line (start 13.97 0) (end 12.7 0) (layer F.Fab) (width 0.1))
  (fp_line (start 7.38 0) (end 1.78 0) (layer F.Fab) (width 0.1))
  (fp_line (start 18.81 0) (end 13.21 0) (layer F.Fab) (width 0.1))
  (fp_line (start 8.14 -1.3) (end 8.14 1.3) (layer F.Fab) (width 0.1))
  (fp_line (start 8.14 1.3) (end 11.94 1.3) (layer F.Fab) (width 0.1))
  (fp_line (start 11.94 1.3) (end 11.94 -1.3) (layer F.Fab) (width 0.1))
  (fp_line (start 11.94 -1.3) (end 8.14 -1.3) (layer F.Fab) (width 0.1))
  (fp_line (start 0 0) (end 5.6 0) (layer F.Fab) (width 0.1))
  (fp_line (start 21.35 0) (end 15.75 0) (layer F.Fab) (width 0.1))
  (fp_line (start 8.08 -1.36) (end 8.08 1.36) (layer F.SilkS) (width 0.12))
  (fp_line (start 8.08 1.36) (end 12 1.36) (layer F.SilkS) (width 0.12))
  (fp_line (start 12 1.36) (end 12 -1.36) (layer F.SilkS) (width 0.12))
  (fp_line (start 12 -1.36) (end 8.08 -1.36) (layer F.SilkS) (width 0.12))
  (fp_line (start 3.52 0) (end 8.08 0) (layer F.SilkS) (width 0.12))
  (fp_line (start 16.56 0) (end 12 0) (layer F.SilkS) (width 0.12))
  (fp_line (start -1.05 -1.65) (end -1.05 1.65) (layer F.CrtYd) (width 0.05))
  (fp_line (start -1.05 1.65) (end 16.05 1.65) (layer F.CrtYd) (width 0.05))
  (fp_line (start 16.05 1.65) (end 16.05 -1.65) (layer F.CrtYd) (width 0.05))
  (fp_line (start 16.05 -1.65) (end -1.05 -1.65) (layer F.CrtYd) (width 0.05))
  (fp_text user %R (at 10.04 0) (layer F.Fab)
    (effects (font (size 1 1) (thickness 0.15)))
  )
  (pad 1 thru_hole circle (at 0 0) (size 1.6 1.6) (drill 0.8) (layers *.Cu *.Mask))
  (pad 2 thru_hole oval (at 21.59 0) (size 1.6 1.6) (drill 0.8) (layers *.Cu *.Mask))
  (model ${KISYS3DMOD}/Capacitors_THT.3dshapes/C_Axial_L3.8mm_D2.6mm_P15.00mm_Horizontal.wrl
    (at (xyz 0 0 0))
    (scale (xyz 1 1 1))
    (rotate (xyz 0 0 0))
  )
)
