(module Link_7.62 (layer F.Cu) (tedit 5A80DC9B)
  (descr "Resistor, Axial_DIN0204 series, Axial, Horizontal, pin pitch=7.62mm, 0.16666666666666666W = 1/6W, length*diameter=3.6*1.6mm^2, http://cdn-reichelt.de/documents/datenblatt/B400/1_4W%23YAG.pdf")
  (tags "Resistor Axial_DIN0204 series Axial Horizontal pin pitch 7.62mm 0.16666666666666666W = 1/6W length 3.6mm diameter 1.6mm")
  (fp_text reference JP? (at 3.81 -1.86) (layer F.SilkS) hide
    (effects (font (size 1 1) (thickness 0.15)))
  )
  (fp_text value JP (at 3.81 1.86) (layer F.Fab) hide
    (effects (font (size 1 1) (thickness 0.15)))
  )
  (fp_line (start 6.35 0) (end 1.27 0) (layer F.SilkS) (width 0.125))
  (fp_line (start 6.35 0) (end 1.27 0) (layer F.Fab) (width 0.1))
  (fp_line (start 0 0) (end 2.01 0) (layer F.Fab) (width 0.1))
  (fp_line (start 7.62 0) (end 5.61 0) (layer F.Fab) (width 0.1))
  (fp_line (start 0.88 0) (end 1.95 0) (layer F.SilkS) (width 0.12))
  (fp_line (start 6.74 0) (end 5.67 0) (layer F.SilkS) (width 0.12))
  (fp_line (start -0.95 -1.15) (end -0.95 1.15) (layer F.CrtYd) (width 0.05))
  (fp_line (start -0.95 1.15) (end 8.6 1.15) (layer F.CrtYd) (width 0.05))
  (fp_line (start 8.6 1.15) (end 8.6 -1.15) (layer F.CrtYd) (width 0.05))
  (fp_line (start 8.6 -1.15) (end -0.95 -1.15) (layer F.CrtYd) (width 0.05))
  (pad 1 thru_hole circle (at 0 0) (size 1.4 1.4) (drill 0.7) (layers *.Cu *.Mask))
  (pad 2 thru_hole oval (at 7.62 0) (size 1.4 1.4) (drill 0.7) (layers *.Cu *.Mask))
  (model ${KISYS3DMOD}/Resistors_THT.3dshapes/R_Axial_DIN0204_L3.6mm_D1.6mm_P7.62mm_Horizontal.wrl
    (at (xyz 0 0 0))
    (scale (xyz 0.393701 0.393701 0.393701))
    (rotate (xyz 0 0 0))
  )
)
