(module "Mounting Hole" (layer F.Cu) (tedit 58849A60)
  (fp_text reference REF** (at 0 0.5) (layer F.SilkS) hide
    (effects (font (size 1 1) (thickness 0.15)))
  )
  (fp_text value "Mounting Hole" (at 0 -0.5) (layer F.Fab) hide
    (effects (font (size 1 1) (thickness 0.15)))
  )
  (pad 1 thru_hole circle (at 0 0) (size 4 4) (drill 3.5) (layers *.Cu *.Mask))
)
